{
  "annotations": {
    "list": [
      {
        "builtIn": 1,
        "datasource": "DFA",
        "enable": false,
        "hide": true,
        "iconColor": "rgba(0, 211, 255, 1)",
        "name": "Annotations & Alerts",
        "type": "dashboard"
      }
    ]
  },
  "editable": true,
  "gnetId": null,
  "graphTooltip": 0,
  "id": 47,
  "iteration": 1608625226945,
  "links": [],
  "panels": [
    {
      "aliasColors": {},
      "bars": true,
      "dashLength": 10,
      "dashes": false,
      "datasource": "DFA",
      "decimals": 0,
      "fill": 1,
      "gridPos": {
        "h": 8,
        "w": 24,
        "x": 0,
        "y": 0
      },
      "id": 4,
      "legend": {
        "alignAsTable": true,
        "avg": true,
        "current": false,
        "hideEmpty": false,
        "hideZero": false,
        "max": false,
        "min": false,
        "rightSide": true,
        "show": true,
        "total": false,
        "values": true
      },
      "lines": false,
      "linewidth": 1,
      "links": [],
      "nullPointMode": "null",
      "percentage": false,
      "pointradius": 5,
      "points": false,
      "renderer": "flot",
      "repeat": "jourSemaine",
      "repeatDirection": "h",
      "scopedVars": {
        "jourSemaine": {
          "selected": true,
          "text": "2",
          "value": "2"
        }
      },
      "seriesOverrides": [],
      "spaceLength": 10,
      "stack": false,
      "steppedLine": false,
      "targets": [
        {
          "format": "time_series",
          "group": [],
          "metricColumn": "none",
          "rawQuery": true,
          "rawSql": "SELECT \ndate as time,\nSUM(nb_tickets_imprimes) as 'Lundi'\nFROM Statistique_affluence\nWHERE $__timeFilter(date)\nAND jour_semaine = 1\nAND libelle_salle_attente IN ([[sallesAttentes]])\nAND libelle_file_attente IN ([[filesAttentes]])\ngroup BY 1",
          "refId": "A",
          "select": [
            [
              {
                "params": [
                  "idImprimante"
                ],
                "type": "column"
              }
            ]
          ],
          "table": "Imprimante",
          "timeColumn": "dateVerif",
          "timeColumnType": "timestamp",
          "where": [
            {
              "name": "$__timeFilter",
              "params": [],
              "type": "macro"
            }
          ]
        },
        {
          "format": "time_series",
          "group": [],
          "metricColumn": "none",
          "rawQuery": true,
          "rawSql": "SELECT \ndate as time,\nSUM(nb_tickets_imprimes) as 'Mardi'\nFROM Statistique_affluence\nWHERE $__timeFilter(date)\nAND jour_semaine = 2\nAND libelle_salle_attente IN ([[sallesAttentes]])\nAND libelle_file_attente IN ([[filesAttentes]])\ngroup BY 1",
          "refId": "B",
          "select": [
            [
              {
                "params": [
                  "idImprimante"
                ],
                "type": "column"
              }
            ]
          ],
          "table": "Imprimante",
          "timeColumn": "dateVerif",
          "timeColumnType": "timestamp",
          "where": [
            {
              "name": "$__timeFilter",
              "params": [],
              "type": "macro"
            }
          ]
        },
        {
          "format": "time_series",
          "group": [],
          "metricColumn": "none",
          "rawQuery": true,
          "rawSql": "SELECT \ndate as time,\nSUM(nb_tickets_imprimes) as 'Mercredi'\nFROM Statistique_affluence\nWHERE $__timeFilter(date)\nAND jour_semaine = 3\nAND libelle_salle_attente IN ([[sallesAttentes]])\nAND libelle_file_attente IN ([[filesAttentes]])\ngroup BY 1",
          "refId": "C",
          "select": [
            [
              {
                "params": [
                  "idImprimante"
                ],
                "type": "column"
              }
            ]
          ],
          "table": "Imprimante",
          "timeColumn": "dateVerif",
          "timeColumnType": "timestamp",
          "where": [
            {
              "name": "$__timeFilter",
              "params": [],
              "type": "macro"
            }
          ]
        },
        {
          "format": "time_series",
          "group": [],
          "metricColumn": "none",
          "rawQuery": true,
          "rawSql": "SELECT \ndate as time,\nSUM(nb_tickets_imprimes) as 'Jeudi'\nFROM Statistique_affluence\nWHERE $__timeFilter(date)\nAND jour_semaine = 4\nAND libelle_salle_attente IN ([[sallesAttentes]])\nAND libelle_file_attente IN ([[filesAttentes]])\ngroup BY 1",
          "refId": "D",
          "select": [
            [
              {
                "params": [
                  "idImprimante"
                ],
                "type": "column"
              }
            ]
          ],
          "table": "Imprimante",
          "timeColumn": "dateVerif",
          "timeColumnType": "timestamp",
          "where": [
            {
              "name": "$__timeFilter",
              "params": [],
              "type": "macro"
            }
          ]
        },
        {
          "format": "time_series",
          "group": [],
          "metricColumn": "none",
          "rawQuery": true,
          "rawSql": "SELECT \ndate as time,\nSUM(nb_tickets_imprimes) as 'Vendredi'\nFROM Statistique_affluence\nWHERE $__timeFilter(date)\nAND jour_semaine = 5\nAND libelle_salle_attente IN ([[sallesAttentes]])\nAND libelle_file_attente IN ([[filesAttentes]])\ngroup BY 1",
          "refId": "E",
          "select": [
            [
              {
                "params": [
                  "idImprimante"
                ],
                "type": "column"
              }
            ]
          ],
          "table": "Imprimante",
          "timeColumn": "dateVerif",
          "timeColumnType": "timestamp",
          "where": [
            {
              "name": "$__timeFilter",
              "params": [],
              "type": "macro"
            }
          ]
        },
        {
          "format": "time_series",
          "group": [],
          "metricColumn": "none",
          "rawQuery": true,
          "rawSql": "SELECT \ndate as time,\nSUM(nb_tickets_imprimes) as 'Samedi'\nFROM Statistique_affluence\nWHERE $__timeFilter(date)\nAND jour_semaine = 6\nAND libelle_salle_attente IN ([[sallesAttentes]])\nAND libelle_file_attente IN ([[filesAttentes]])\ngroup BY 1",
          "refId": "F",
          "select": [
            [
              {
                "params": [
                  "idImprimante"
                ],
                "type": "column"
              }
            ]
          ],
          "table": "Imprimante",
          "timeColumn": "dateVerif",
          "timeColumnType": "timestamp",
          "where": [
            {
              "name": "$__timeFilter",
              "params": [],
              "type": "macro"
            }
          ]
        },
        {
          "format": "time_series",
          "group": [],
          "metricColumn": "none",
          "rawQuery": true,
          "rawSql": "SELECT \ndate as time,\nSUM(nb_tickets_imprimes) as 'Dimanche'\nFROM Statistique_affluence\nWHERE $__timeFilter(date)\nAND jour_semaine = 7\nAND libelle_salle_attente IN ([[sallesAttentes]])\nAND libelle_file_attente IN ([[filesAttentes]])\ngroup BY 1",
          "refId": "G",
          "select": [
            [
              {
                "params": [
                  "idImprimante"
                ],
                "type": "column"
              }
            ]
          ],
          "table": "Imprimante",
          "timeColumn": "dateVerif",
          "timeColumnType": "timestamp",
          "where": [
            {
              "name": "$__timeFilter",
              "params": [],
              "type": "macro"
            }
          ]
        }
      ],
      "thresholds": [],
      "timeFrom": null,
      "timeRegions": [],
      "timeShift": null,
      "title": "Affluence par semaine",
      "tooltip": {
        "shared": false,
        "sort": 0,
        "value_type": "individual"
      },
      "type": "graph",
      "xaxis": {
        "buckets": null,
        "mode": "series",
        "name": null,
        "show": true,
        "values": [
          "avg"
        ]
      },
      "yaxes": [
        {
          "decimals": 0,
          "format": "none",
          "label": null,
          "logBase": 1,
          "max": null,
          "min": null,
          "show": true
        },
        {
          "decimals": 0,
          "format": "none",
          "label": null,
          "logBase": 1,
          "max": null,
          "min": null,
          "show": true
        }
      ],
      "yaxis": {
        "align": false,
        "alignLevel": null
      }
    },
    {
      "aliasColors": {},
      "bars": true,
      "dashLength": 10,
      "dashes": false,
      "datasource": "DFA",
      "decimals": 0,
      "fill": 1,
      "gridPos": {
        "h": 11,
        "w": 24,
        "x": 0,
        "y": 8
      },
      "id": 2,
      "legend": {
        "alignAsTable": true,
        "avg": true,
        "current": false,
        "hideEmpty": false,
        "hideZero": false,
        "max": false,
        "min": false,
        "rightSide": true,
        "show": true,
        "total": true,
        "values": true
      },
      "lines": false,
      "linewidth": 1,
      "links": [],
      "nullPointMode": "null",
      "percentage": false,
      "pointradius": 5,
      "points": false,
      "renderer": "flot",
      "repeat": "jourSemaine",
      "repeatDirection": "h",
      "scopedVars": {
        "jourSemaine": {
          "selected": true,
          "text": "2",
          "value": "2"
        }
      },
      "seriesOverrides": [],
      "spaceLength": 10,
      "stack": false,
      "steppedLine": false,
      "targets": [
        {
          "format": "time_series",
          "group": [],
          "metricColumn": "none",
          "rawQuery": true,
          "rawSql": "SELECT \ndate as time,\nSUM(nb_tickets_imprimes) as '6:00'\nFROM Statistique_affluence\nWHERE $__timeFilter(date)\nAND jour_semaine = [[jourSemaine]]\nAND libelle_salle_attente IN ([[sallesAttentes]])\nAND libelle_file_attente IN ([[filesAttentes]])\nAND heure = 6\ngroup BY 1",
          "refId": "A",
          "select": [
            [
              {
                "params": [
                  "idImprimante"
                ],
                "type": "column"
              }
            ]
          ],
          "table": "Imprimante",
          "timeColumn": "dateVerif",
          "timeColumnType": "timestamp",
          "where": [
            {
              "name": "$__timeFilter",
              "params": [],
              "type": "macro"
            }
          ]
        },
        {
          "format": "time_series",
          "group": [],
          "metricColumn": "none",
          "rawQuery": true,
          "rawSql": "SELECT \ndate as time,\nSUM(nb_tickets_imprimes) as '7:00'\nFROM Statistique_affluence\nWHERE $__timeFilter(date)\nAND jour_semaine = [[jourSemaine]]\nAND libelle_salle_attente IN ([[sallesAttentes]])\nAND libelle_file_attente IN ([[filesAttentes]])\nAND heure = 7\ngroup BY 1",
          "refId": "B",
          "select": [
            [
              {
                "params": [
                  "idImprimante"
                ],
                "type": "column"
              }
            ]
          ],
          "table": "Imprimante",
          "timeColumn": "dateVerif",
          "timeColumnType": "timestamp",
          "where": [
            {
              "name": "$__timeFilter",
              "params": [],
              "type": "macro"
            }
          ]
        },
        {
          "format": "time_series",
          "group": [],
          "metricColumn": "none",
          "rawQuery": true,
          "rawSql": "SELECT \ndate as time,\nSUM(nb_tickets_imprimes) as '8:00'\nFROM Statistique_affluence\nWHERE $__timeFilter(date)\nAND jour_semaine = [[jourSemaine]]\nAND libelle_salle_attente IN ([[sallesAttentes]])\nAND libelle_file_attente IN ([[filesAttentes]])\nAND heure = 8\ngroup BY 1",
          "refId": "C",
          "select": [
            [
              {
                "params": [
                  "idImprimante"
                ],
                "type": "column"
              }
            ]
          ],
          "table": "Imprimante",
          "timeColumn": "dateVerif",
          "timeColumnType": "timestamp",
          "where": [
            {
              "name": "$__timeFilter",
              "params": [],
              "type": "macro"
            }
          ]
        },
        {
          "format": "time_series",
          "group": [],
          "metricColumn": "none",
          "rawQuery": true,
          "rawSql": "SELECT \ndate as time,\nSUM(nb_tickets_imprimes) as '9:00'\nFROM Statistique_affluence\nWHERE $__timeFilter(date)\nAND jour_semaine = [[jourSemaine]]\nAND libelle_salle_attente IN ([[sallesAttentes]])\nAND libelle_file_attente IN ([[filesAttentes]])\nAND heure = 9\ngroup BY 1",
          "refId": "D",
          "select": [
            [
              {
                "params": [
                  "idImprimante"
                ],
                "type": "column"
              }
            ]
          ],
          "table": "Imprimante",
          "timeColumn": "dateVerif",
          "timeColumnType": "timestamp",
          "where": [
            {
              "name": "$__timeFilter",
              "params": [],
              "type": "macro"
            }
          ]
        },
        {
          "format": "time_series",
          "group": [],
          "metricColumn": "none",
          "rawQuery": true,
          "rawSql": "SELECT \ndate as time,\nSUM(nb_tickets_imprimes) as '10:00'\nFROM Statistique_affluence\nWHERE $__timeFilter(date)\nAND jour_semaine = [[jourSemaine]]\nAND libelle_salle_attente IN ([[sallesAttentes]])\nAND libelle_file_attente IN ([[filesAttentes]])\nAND heure = 10\ngroup BY 1",
          "refId": "E",
          "select": [
            [
              {
                "params": [
                  "idImprimante"
                ],
                "type": "column"
              }
            ]
          ],
          "table": "Imprimante",
          "timeColumn": "dateVerif",
          "timeColumnType": "timestamp",
          "where": [
            {
              "name": "$__timeFilter",
              "params": [],
              "type": "macro"
            }
          ]
        },
        {
          "format": "time_series",
          "group": [],
          "metricColumn": "none",
          "rawQuery": true,
          "rawSql": "SELECT \ndate as time,\nSUM(nb_tickets_imprimes) as '11:00'\nFROM Statistique_affluence\nWHERE $__timeFilter(date)\nAND jour_semaine = [[jourSemaine]]\nAND libelle_salle_attente IN ([[sallesAttentes]])\nAND libelle_file_attente IN ([[filesAttentes]])\nAND heure = 11\ngroup BY 1",
          "refId": "F",
          "select": [
            [
              {
                "params": [
                  "idImprimante"
                ],
                "type": "column"
              }
            ]
          ],
          "table": "Imprimante",
          "timeColumn": "dateVerif",
          "timeColumnType": "timestamp",
          "where": [
            {
              "name": "$__timeFilter",
              "params": [],
              "type": "macro"
            }
          ]
        },
        {
          "format": "time_series",
          "group": [],
          "metricColumn": "none",
          "rawQuery": true,
          "rawSql": "SELECT \ndate as time,\nSUM(nb_tickets_imprimes) as '12:00'\nFROM Statistique_affluence\nWHERE $__timeFilter(date)\nAND jour_semaine = [[jourSemaine]]\nAND libelle_salle_attente IN ([[sallesAttentes]])\nAND libelle_file_attente IN ([[filesAttentes]])\nAND heure = 12\ngroup BY 1",
          "refId": "G",
          "select": [
            [
              {
                "params": [
                  "idImprimante"
                ],
                "type": "column"
              }
            ]
          ],
          "table": "Imprimante",
          "timeColumn": "dateVerif",
          "timeColumnType": "timestamp",
          "where": [
            {
              "name": "$__timeFilter",
              "params": [],
              "type": "macro"
            }
          ]
        },
        {
          "format": "time_series",
          "group": [],
          "metricColumn": "none",
          "rawQuery": true,
          "rawSql": "SELECT \ndate as time,\nSUM(nb_tickets_imprimes) as '13:00'\nFROM Statistique_affluence\nWHERE $__timeFilter(date)\nAND jour_semaine = [[jourSemaine]]\nAND libelle_salle_attente IN ([[sallesAttentes]])\nAND libelle_file_attente IN ([[filesAttentes]])\nAND heure = 13\ngroup BY 1",
          "refId": "H",
          "select": [
            [
              {
                "params": [
                  "idImprimante"
                ],
                "type": "column"
              }
            ]
          ],
          "table": "Imprimante",
          "timeColumn": "dateVerif",
          "timeColumnType": "timestamp",
          "where": [
            {
              "name": "$__timeFilter",
              "params": [],
              "type": "macro"
            }
          ]
        },
        {
          "format": "time_series",
          "group": [],
          "metricColumn": "none",
          "rawQuery": true,
          "rawSql": "SELECT \ndate as time,\nSUM(nb_tickets_imprimes) as '14:00'\nFROM Statistique_affluence\nWHERE $__timeFilter(date)\nAND jour_semaine IN ([[jourSemaine]])\nAND libelle_salle_attente IN ([[sallesAttentes]])\nAND libelle_file_attente IN ([[filesAttentes]])\nAND heure = 14\ngroup BY 1",
          "refId": "I",
          "select": [
            [
              {
                "params": [
                  "idImprimante"
                ],
                "type": "column"
              }
            ]
          ],
          "table": "Imprimante",
          "timeColumn": "dateVerif",
          "timeColumnType": "timestamp",
          "where": [
            {
              "name": "$__timeFilter",
              "params": [],
              "type": "macro"
            }
          ]
        },
        {
          "format": "time_series",
          "group": [],
          "metricColumn": "none",
          "rawQuery": true,
          "rawSql": "SELECT \ndate as time,\nSUM(nb_tickets_imprimes) as '15:00'\nFROM Statistique_affluence\nWHERE $__timeFilter(date)\nAND jour_semaine = [[jourSemaine]]\nAND libelle_salle_attente IN ([[sallesAttentes]])\nAND libelle_file_attente IN ([[filesAttentes]])\nAND heure = 15\ngroup BY 1",
          "refId": "J",
          "select": [
            [
              {
                "params": [
                  "idImprimante"
                ],
                "type": "column"
              }
            ]
          ],
          "table": "Imprimante",
          "timeColumn": "dateVerif",
          "timeColumnType": "timestamp",
          "where": [
            {
              "name": "$__timeFilter",
              "params": [],
              "type": "macro"
            }
          ]
        },
        {
          "format": "time_series",
          "group": [],
          "metricColumn": "none",
          "rawQuery": true,
          "rawSql": "SELECT \ndate as time,\nSUM(nb_tickets_imprimes) as '16:00'\nFROM Statistique_affluence\nWHERE $__timeFilter(date)\nAND jour_semaine = [[jourSemaine]]\nAND libelle_salle_attente IN ([[sallesAttentes]])\nAND libelle_file_attente IN ([[filesAttentes]])\nAND heure = 16\ngroup BY 1",
          "refId": "K",
          "select": [
            [
              {
                "params": [
                  "idImprimante"
                ],
                "type": "column"
              }
            ]
          ],
          "table": "Imprimante",
          "timeColumn": "dateVerif",
          "timeColumnType": "timestamp",
          "where": [
            {
              "name": "$__timeFilter",
              "params": [],
              "type": "macro"
            }
          ]
        },
        {
          "format": "time_series",
          "group": [],
          "metricColumn": "none",
          "rawQuery": true,
          "rawSql": "SELECT \ndate as time,\nSUM(nb_tickets_imprimes) as '17:00'\nFROM Statistique_affluence\nWHERE $__timeFilter(date)\nAND jour_semaine = [[jourSemaine]]\nAND libelle_salle_attente IN ([[sallesAttentes]])\nAND libelle_file_attente IN ([[filesAttentes]])\nAND heure = 17\ngroup BY 1",
          "refId": "L",
          "select": [
            [
              {
                "params": [
                  "idImprimante"
                ],
                "type": "column"
              }
            ]
          ],
          "table": "Imprimante",
          "timeColumn": "dateVerif",
          "timeColumnType": "timestamp",
          "where": [
            {
              "name": "$__timeFilter",
              "params": [],
              "type": "macro"
            }
          ]
        },
        {
          "format": "time_series",
          "group": [],
          "metricColumn": "none",
          "rawQuery": true,
          "rawSql": "SELECT \ndate as time,\nSUM(nb_tickets_imprimes) as '18:00'\nFROM Statistique_affluence\nWHERE $__timeFilter(date)\nAND jour_semaine = [[jourSemaine]]\nAND libelle_salle_attente IN ([[sallesAttentes]])\nAND libelle_file_attente IN ([[filesAttentes]])\nAND heure = 18\ngroup BY 1",
          "refId": "M",
          "select": [
            [
              {
                "params": [
                  "idImprimante"
                ],
                "type": "column"
              }
            ]
          ],
          "table": "Imprimante",
          "timeColumn": "dateVerif",
          "timeColumnType": "timestamp",
          "where": [
            {
              "name": "$__timeFilter",
              "params": [],
              "type": "macro"
            }
          ]
        },
        {
          "format": "time_series",
          "group": [],
          "metricColumn": "none",
          "rawQuery": true,
          "rawSql": "SELECT \ndate as time,\nSUM(nb_tickets_imprimes) as '19:00'\nFROM Statistique_affluence\nWHERE $__timeFilter(date)\nAND jour_semaine = [[jourSemaine]]\nAND libelle_salle_attente IN ([[sallesAttentes]])\nAND libelle_file_attente IN ([[filesAttentes]])\nAND heure = 19\ngroup BY 1",
          "refId": "N",
          "select": [
            [
              {
                "params": [
                  "idImprimante"
                ],
                "type": "column"
              }
            ]
          ],
          "table": "Imprimante",
          "timeColumn": "dateVerif",
          "timeColumnType": "timestamp",
          "where": [
            {
              "name": "$__timeFilter",
              "params": [],
              "type": "macro"
            }
          ]
        },
        {
          "format": "time_series",
          "group": [],
          "metricColumn": "none",
          "rawQuery": true,
          "rawSql": "SELECT \ndate as time,\nSUM(nb_tickets_imprimes) as '20:00'\nFROM Statistique_affluence\nWHERE $__timeFilter(date)\nAND jour_semaine = [[jourSemaine]]\nAND libelle_salle_attente IN ([[sallesAttentes]])\nAND libelle_file_attente IN ([[filesAttentes]])\nAND heure = 20\ngroup BY 1",
          "refId": "O",
          "select": [
            [
              {
                "params": [
                  "idImprimante"
                ],
                "type": "column"
              }
            ]
          ],
          "table": "Imprimante",
          "timeColumn": "dateVerif",
          "timeColumnType": "timestamp",
          "where": [
            {
              "name": "$__timeFilter",
              "params": [],
              "type": "macro"
            }
          ]
        }
      ],
      "thresholds": [],
      "timeFrom": null,
      "timeRegions": [],
      "timeShift": null,
      "title": "Affluence [[nomJour]]",
      "tooltip": {
        "shared": false,
        "sort": 0,
        "value_type": "individual"
      },
      "type": "graph",
      "xaxis": {
        "buckets": null,
        "mode": "series",
        "name": null,
        "show": true,
        "values": [
          "avg"
        ]
      },
      "yaxes": [
        {
          "decimals": 0,
          "format": "short",
          "label": null,
          "logBase": 1,
          "max": null,
          "min": null,
          "show": true
        },
        {
          "decimals": 0,
          "format": "short",
          "label": null,
          "logBase": 1,
          "max": null,
          "min": null,
          "show": true
        }
      ],
      "yaxis": {
        "align": false,
        "alignLevel": null
      }
    }
  ],
  "schemaVersion": 16,
  "style": "dark",
  "tags": [],
  "templating": {
    "list": [
      {
        "allValue": "Tous",
        "current": {
          "selected": false,
          "tags": [],
          "text": "Lundi",
          "value": "Lundi"
        },
        "hide": 0,
        "includeAll": true,
        "label": "Jour",
        "multi": false,
        "name": "nomJour",
        "options": [
          {
            "selected": false,
            "text": "All",
            "value": "$__all"
          },
          {
            "selected": false,
            "text": "Lundi",
            "value": "Lundi"
          },
          {
            "selected": true,
            "text": "Mardi",
            "value": "Mardi"
          },
          {
            "selected": false,
            "text": "Mercredi",
            "value": "Mercredi"
          },
          {
            "selected": false,
            "text": "Jeudi",
            "value": "Jeudi"
          },
          {
            "selected": false,
            "text": "Vendredi",
            "value": "Vendredi"
          },
          {
            "selected": false,
            "text": "Samedi",
            "value": "Samedi"
          },
          {
            "selected": false,
            "text": "Dimanche",
            "value": "Dimanche"
          }
        ],
        "query": "Lundi,Mardi,Mercredi,Jeudi,Vendredi,Samedi,Dimanche",
        "skipUrlSync": false,
        "type": "custom"
      },
      {
        "allValue": null,
        "current": {
          "text": "1",
          "value": "1"
        },
        "datasource": "DFA",
        "definition": "SELECT CASE     WHEN [[nomJour]] = 'Lundi' THEN 1     WHEN [[nomJour]] = 'Mardi' THEN 2     WHEN [[nomJour]] = 'Mercredi' THEN 3     WHEN [[nomJour]] = 'Jeudi' THEN 4     WHEN [[nomJour]] = 'Vendredi' THEN 5     WHEN [[nomJour]] = 'Samedi' THEN 6     WHEN [[nomJour]] = 'Dimanche' THEN 7 END",
        "hide": 2,
        "includeAll": false,
        "label": "Jour Semaine",
        "multi": false,
        "name": "jourSemaine",
        "options": [
          {
            "selected": true,
            "text": "2",
            "value": "2"
          }
        ],
        "query": "SELECT CASE     WHEN [[nomJour]] = 'Lundi' THEN 1     WHEN [[nomJour]] = 'Mardi' THEN 2     WHEN [[nomJour]] = 'Mercredi' THEN 3     WHEN [[nomJour]] = 'Jeudi' THEN 4     WHEN [[nomJour]] = 'Vendredi' THEN 5     WHEN [[nomJour]] = 'Samedi' THEN 6     WHEN [[nomJour]] = 'Dimanche' THEN 7 END",
        "refresh": 0,
        "regex": "",
        "skipUrlSync": false,
        "sort": 0,
        "tagValuesQuery": "",
        "tags": [],
        "tagsQuery": "",
        "type": "query",
        "useTags": false
      },
      {
        "allValue": "",
        "current": {
          "selected": true,
          "text": "All",
          "value": "$__all"
        },
        "datasource": "DFA",
        "definition": "SELECT Nom_salle_attente FROM Salles_attente",
        "hide": 0,
        "includeAll": true,
        "label": "Salle Attentes",
        "multi": false,
        "name": "sallesAttentes",
        "options": [
          {
            "selected": true,
            "text": "All",
            "value": "$__all"
          },
          {
            "selected": false,
            "text": "Salle d'attente principale",
            "value": "Salle d'attente principale"
          }
        ],
        "query": "SELECT Nom_salle_attente FROM Salles_attente",
        "refresh": 0,
        "regex": "",
        "skipUrlSync": false,
        "sort": 0,
        "tagValuesQuery": "",
        "tags": [],
        "tagsQuery": "",
        "type": "query",
        "useTags": false
      },
      {
        "allValue": "",
        "current": {
          "tags": [],
          "text": "All",
          "value": "$__all"
        },
        "datasource": "DFA",
        "definition": "SELECT lf.libelle_FA FROM Libelle_FA lf          LEFT JOIN Files_attente fa ON (lf.idFile_attente = fa.idFile_attente)          LEFT JOIN Salles_attente sa ON (fa.id_salle_attente = sa.idSalle_attente) WHERE lf.idLangue = 1 AND sa.Nom_salle_attente = [[sallesAttentes]]",
        "hide": 0,
        "includeAll": true,
        "label": "Files Attentes",
        "multi": false,
        "name": "filesAttentes",
        "options": [
          {
            "selected": true,
            "text": "All",
            "value": "$__all"
          },
          {
            "selected": false,
            "text": "ENTREE",
            "value": "ENTREE"
          },
          {
            "selected": false,
            "text": "SORTIE",
            "value": "SORTIE"
          },
          {
            "selected": false,
            "text": "AUTRE DEMANDE ",
            "value": "AUTRE DEMANDE "
          },
          {
            "selected": false,
            "text": "Mise à Jour Carte Vitale",
            "value": "Mise à Jour Carte Vitale"
          },
          {
            "selected": false,
            "text": "AMBULANCIER",
            "value": "AMBULANCIER"
          },
          {
            "selected": false,
            "text": "RESERVATION",
            "value": "RESERVATION"
          },
          {
            "selected": false,
            "text": "REGLEMENT ",
            "value": "REGLEMENT "
          },
          {
            "selected": false,
            "text": "HOSPITALISATION",
            "value": "HOSPITALISATION"
          },
          {
            "selected": false,
            "text": "AMBULATOIRE",
            "value": "AMBULATOIRE"
          },
          {
            "selected": false,
            "text": "RÉSERVATION HOSPITALISATION",
            "value": "RÉSERVATION HOSPITALISATION"
          },
          {
            "selected": false,
            "text": "RÉSERVATION AMBULATOIRE",
            "value": "RÉSERVATION AMBULATOIRE"
          },
          {
            "selected": false,
            "text": "RÉSERVATION MATERNITÉ",
            "value": "RÉSERVATION MATERNITÉ"
          },
          {
            "selected": false,
            "text": "SORTIE AMBULATOIRE",
            "value": "SORTIE AMBULATOIRE"
          },
          {
            "selected": false,
            "text": "SORTIE HOSPITALISATION",
            "value": "SORTIE HOSPITALISATION"
          },
          {
            "selected": false,
            "text": "SOINS EXTERNES",
            "value": "SOINS EXTERNES"
          },
          {
            "selected": false,
            "text": "MATERNITÉ",
            "value": "MATERNITÉ"
          },
          {
            "selected": false,
            "text": "Mise à jour de la Carte Vitale",
            "value": "Mise à jour de la Carte Vitale"
          },
          {
            "selected": false,
            "text": "Impression des droits Carte Vitale",
            "value": "Impression des droits Carte Vitale"
          }
        ],
        "query": "SELECT lf.libelle_FA FROM Libelle_FA lf          LEFT JOIN Files_attente fa ON (lf.idFile_attente = fa.idFile_attente)          LEFT JOIN Salles_attente sa ON (fa.id_salle_attente = sa.idSalle_attente) WHERE lf.idLangue = 1 AND sa.Nom_salle_attente = [[sallesAttentes]]",
        "refresh": 0,
        "regex": "",
        "skipUrlSync": false,
        "sort": 0,
        "tagValuesQuery": "",
        "tags": [],
        "tagsQuery": "",
        "type": "query",
        "useTags": false
      }
    ]
  },
  "time": {
    "from": "now-90d",
    "to": "now"
  },
  "timepicker": {
    "refresh_intervals": [
      "5s",
      "10s",
      "30s",
      "1m",
      "5m",
      "15m",
      "30m",
      "1h",
      "2h",
      "1d"
    ],
    "time_options": [
      "5m",
      "15m",
      "1h",
      "6h",
      "12h",
      "24h",
      "2d",
      "7d",
      "30d"
    ]
  },
  "timezone": "",
  "title": "DFA - Statistiques Affluence",
  "uid": "tw0qGJ0Wk",
  "version": 36
}
