{
  "annotations": {
    "list": [
      {
        "builtIn": 1,
        "datasource": "DFA",
        "enable": false,
        "hide": true,
        "iconColor": "rgba(0, 211, 255, 1)",
        "name": "Annotations & Alerts",
        "type": "dashboard"
      }
    ]
  },
  "editable": true,
  "gnetId": null,
  "graphTooltip": 0,
  "id": 44,
  "links": [],
  "panels": [
    {
      "aliasColors": {
        "Match RDV par CV": "#3f6833",
        "Match RDV par Nom + DDN": "#7eb26d",
        "Match RDV replis tél": "#629e51",
        "Non match RDV par CV": "#890f02",
        "Non match RDV par Nom + DDN": "#f9934e",
        "Non match RDV replis tél": "#bf1b00"
      },
      "breakPoint": "50%",
      "cacheTimeout": null,
      "combine": {
        "label": "Others",
        "threshold": 0
      },
      "datasource": "DFA",
      "decimals": 0,
      "fontSize": "80%",
      "format": "none",
      "gridPos": {
        "h": 13,
        "w": 8,
        "x": 0,
        "y": 0
      },
      "id": 2,
      "interval": null,
      "legend": {
        "percentage": false,
        "show": true,
        "values": true
      },
      "legendType": "Right side",
      "links": [],
      "maxDataPoints": 3,
      "nullPointMode": "connected",
      "pieType": "donut",
      "strokeWidth": 1,
      "targets": [
        {
          "format": "time_series",
          "group": [],
          "metricColumn": "none",
          "rawQuery": true,
          "rawSql": "select\n  creation AS \"time\",\n  count(*) AS \"Match RDV par CV\"\nfrom Historique_recherche_rendez_vous\nwhere fonction_file_attente_id in (9)\nand nb_resultats > 0\nand   $__timeFilter(creation)\nORDER BY creation;",
          "refId": "A",
          "select": [
            [
              {
                "params": [
                  "idImprimante"
                ],
                "type": "column"
              }
            ]
          ],
          "table": "Imprimante",
          "timeColumn": "dateVerif",
          "timeColumnType": "timestamp",
          "where": [
            {
              "name": "$__timeFilter",
              "params": [],
              "type": "macro"
            }
          ]
        },
        {
          "format": "time_series",
          "group": [],
          "metricColumn": "none",
          "rawQuery": true,
          "rawSql": "select\n  creation AS \"time\",\n  count(*) AS \"Match RDV par Nom + DDN\"\nfrom Historique_recherche_rendez_vous\nwhere fonction_file_attente_id in (8)\nand nb_resultats > 0\nand   $__timeFilter(creation)\nORDER BY creation;",
          "refId": "E",
          "select": [
            [
              {
                "params": [
                  "idImprimante"
                ],
                "type": "column"
              }
            ]
          ],
          "table": "Imprimante",
          "timeColumn": "dateVerif",
          "timeColumnType": "timestamp",
          "where": [
            {
              "name": "$__timeFilter",
              "params": [],
              "type": "macro"
            }
          ]
        },
        {
          "format": "time_series",
          "group": [],
          "metricColumn": "none",
          "rawQuery": true,
          "rawSql": "select\n  creation AS \"time\",\n  count(*) AS \"Match RDV replis tél\"\nfrom Historique_recherche_rendez_vous\nwhere fonction_file_attente_id in (11)\nand nb_resultats > 0\nand   $__timeFilter(creation)\nORDER BY creation;",
          "refId": "B",
          "select": [
            [
              {
                "params": [
                  "idDonnees_carte_vitale"
                ],
                "type": "column"
              }
            ]
          ],
          "table": "Donnees_carte_vitale",
          "timeColumn": "Creation",
          "timeColumnType": "timestamp",
          "where": [
            {
              "name": "$__timeFilter",
              "params": [],
              "type": "macro"
            }
          ]
        },
        {
          "format": "time_series",
          "group": [],
          "metricColumn": "none",
          "rawQuery": true,
          "rawSql": "select\n  creation AS \"time\",\n  count(*) AS \"Non match RDV par CV\"\nfrom Historique_recherche_rendez_vous\nwhere fonction_file_attente_id in (9)\nand nb_resultats = 0\nand   $__timeFilter(creation)\nORDER BY creation;",
          "refId": "C",
          "select": [
            [
              {
                "params": [
                  "idDonnees_carte_vitale"
                ],
                "type": "column"
              }
            ]
          ],
          "table": "Donnees_carte_vitale",
          "timeColumn": "Creation",
          "timeColumnType": "timestamp",
          "where": [
            {
              "name": "$__timeFilter",
              "params": [],
              "type": "macro"
            }
          ]
        },
        {
          "format": "time_series",
          "group": [],
          "metricColumn": "none",
          "rawQuery": true,
          "rawSql": "select\n  creation AS \"time\",\n  count(*) AS \"Non match RDV replis tél\"\nfrom Historique_recherche_rendez_vous\nwhere fonction_file_attente_id in (11)\nand nb_resultats = 0\nand   $__timeFilter(creation)\nORDER BY creation;",
          "refId": "D",
          "select": [
            [
              {
                "params": [
                  "idDonnees_carte_vitale"
                ],
                "type": "column"
              }
            ]
          ],
          "table": "Donnees_carte_vitale",
          "timeColumn": "Creation",
          "timeColumnType": "timestamp",
          "where": [
            {
              "name": "$__timeFilter",
              "params": [],
              "type": "macro"
            }
          ]
        },
        {
          "format": "time_series",
          "group": [],
          "metricColumn": "none",
          "rawQuery": true,
          "rawSql": "select\n  creation AS \"time\",\n  count(*) AS \"Non match RDV par Nom + DDN\"\nfrom Historique_recherche_rendez_vous\nwhere fonction_file_attente_id in (8)\nand nb_resultats = 0\nand   $__timeFilter(creation)\nORDER BY creation;",
          "refId": "F",
          "select": [
            [
              {
                "params": [
                  "idDonnees_carte_vitale"
                ],
                "type": "column"
              }
            ]
          ],
          "table": "Donnees_carte_vitale",
          "timeColumn": "Creation",
          "timeColumnType": "timestamp",
          "where": [
            {
              "name": "$__timeFilter",
              "params": [],
              "type": "macro"
            }
          ]
        }
      ],
      "title": "Historique de recherche de RDV",
      "type": "grafana-piechart-panel",
      "valueName": "current"
    },
    {
      "aliasColors": {
        "Match RDV par CV": "#3f6833",
        "Match RDV par Nom + DDN": "#7eb26d",
        "Match RDV replis tél": "#629e51",
        "Non Match RDV par Nom + DDN": "#f9934e",
        "Non match RDV par CV": "#890f02",
        "Non match RDV replis tél": "#bf1b00"
      },
      "bars": true,
      "dashLength": 10,
      "dashes": false,
      "datasource": "DFA",
      "decimals": 0,
      "fill": 1,
      "gridPos": {
        "h": 13,
        "w": 16,
        "x": 8,
        "y": 0
      },
      "id": 4,
      "legend": {
        "alignAsTable": true,
        "avg": true,
        "current": false,
        "max": false,
        "min": false,
        "rightSide": true,
        "show": true,
        "total": true,
        "values": true
      },
      "lines": false,
      "linewidth": 1,
      "links": [],
      "nullPointMode": "null",
      "percentage": false,
      "pointradius": 5,
      "points": false,
      "renderer": "flot",
      "seriesOverrides": [
        {
          "alias": "Match RDV par CV",
          "stack": "A"
        },
        {
          "alias": "Match RDV replis tél",
          "stack": "A"
        },
        {
          "alias": "Non match RDV par CV",
          "stack": "B",
          "transform": "negative-Y"
        },
        {
          "alias": "Non match RDV replis tél",
          "stack": "B",
          "transform": "negative-Y"
        },
        {
          "alias": "Match RDV par Nom + DDN",
          "stack": "A"
        },
        {
          "alias": "Non Match RDV par Nom + DDN",
          "stack": "B",
          "transform": "negative-Y"
        }
      ],
      "spaceLength": 10,
      "stack": false,
      "steppedLine": false,
      "targets": [
        {
          "format": "time_series",
          "group": [],
          "hide": false,
          "metricColumn": "none",
          "rawQuery": true,
          "rawSql": "select\n  $__timeGroup(creation, '24h', 0) AS \"time\",\n  count(*) AS \"Match RDV par CV\"\nfrom Historique_recherche_rendez_vous\nwhere fonction_file_attente_id in (9)\nand nb_resultats > 0\nand   $__timeFilter(creation)\nGROUP BY $__timeGroup(creation, '24h', 0)\nORDER BY creation",
          "refId": "A",
          "select": [
            [
              {
                "params": [
                  "idImprimante"
                ],
                "type": "column"
              }
            ]
          ],
          "table": "Imprimante",
          "timeColumn": "dateVerif",
          "timeColumnType": "timestamp",
          "where": [
            {
              "name": "$__timeFilter",
              "params": [],
              "type": "macro"
            }
          ]
        },
        {
          "format": "time_series",
          "group": [],
          "hide": false,
          "metricColumn": "none",
          "rawQuery": true,
          "rawSql": "select\n  $__timeGroup(creation, '24h', 0) AS \"time\",\n  count(*) AS \"Match RDV replis tél\"\nfrom Historique_recherche_rendez_vous\nwhere fonction_file_attente_id in (11)\nand nb_resultats > 0\nand   $__timeFilter(creation)\nGROUP BY $__timeGroup(creation, '24h', 0)\nORDER BY creation",
          "refId": "B",
          "select": [
            [
              {
                "params": [
                  "idImprimante"
                ],
                "type": "column"
              }
            ]
          ],
          "table": "Imprimante",
          "timeColumn": "dateVerif",
          "timeColumnType": "timestamp",
          "where": [
            {
              "name": "$__timeFilter",
              "params": [],
              "type": "macro"
            }
          ]
        },
        {
          "format": "time_series",
          "group": [],
          "hide": false,
          "metricColumn": "none",
          "rawQuery": true,
          "rawSql": "select\n  $__timeGroup(creation, '24h', 0) AS \"time\",\n  count(*) AS \"Match RDV par Nom + DDN\"\nfrom Historique_recherche_rendez_vous\nwhere fonction_file_attente_id in (8)\nand nb_resultats > 0\nand   $__timeFilter(creation)\nGROUP BY $__timeGroup(creation, '24h', 0)\nORDER BY creation",
          "refId": "E",
          "select": [
            [
              {
                "params": [
                  "idImprimante"
                ],
                "type": "column"
              }
            ]
          ],
          "table": "Imprimante",
          "timeColumn": "dateVerif",
          "timeColumnType": "timestamp",
          "where": [
            {
              "name": "$__timeFilter",
              "params": [],
              "type": "macro"
            }
          ]
        },
        {
          "format": "time_series",
          "group": [],
          "metricColumn": "none",
          "rawQuery": true,
          "rawSql": "select\n  $__timeGroup(creation, '24h', 0) AS \"time\",\n  count(*) AS \"Non match RDV par CV\"\nfrom Historique_recherche_rendez_vous\nwhere fonction_file_attente_id in (9)\nand nb_resultats = 0\nand   $__timeFilter(creation)\nGROUP BY $__timeGroup(creation, '24h', 0)\nORDER BY creation",
          "refId": "C",
          "select": [
            [
              {
                "params": [
                  "idImprimante"
                ],
                "type": "column"
              }
            ]
          ],
          "table": "Imprimante",
          "timeColumn": "dateVerif",
          "timeColumnType": "timestamp",
          "where": [
            {
              "name": "$__timeFilter",
              "params": [],
              "type": "macro"
            }
          ]
        },
        {
          "format": "time_series",
          "group": [],
          "metricColumn": "none",
          "rawQuery": true,
          "rawSql": "select\n  $__timeGroup(creation, '24h', 0) AS \"time\",\n  count(*) AS \"Non match RDV replis tél\"\nfrom Historique_recherche_rendez_vous\nwhere fonction_file_attente_id in (11)\nand nb_resultats = 0\nand   $__timeFilter(creation)\nGROUP BY $__timeGroup(creation, '24h', 0)\nORDER BY creation",
          "refId": "D",
          "select": [
            [
              {
                "params": [
                  "idImprimante"
                ],
                "type": "column"
              }
            ]
          ],
          "table": "Imprimante",
          "timeColumn": "dateVerif",
          "timeColumnType": "timestamp",
          "where": [
            {
              "name": "$__timeFilter",
              "params": [],
              "type": "macro"
            }
          ]
        },
        {
          "format": "time_series",
          "group": [],
          "metricColumn": "none",
          "rawQuery": true,
          "rawSql": "select\n  $__timeGroup(creation, '24h', 0) AS \"time\",\n  count(*) AS \"Non Match RDV par Nom + DDN\"\nfrom Historique_recherche_rendez_vous\nwhere fonction_file_attente_id in (8)\nand nb_resultats = 0\nand   $__timeFilter(creation)\nGROUP BY $__timeGroup(creation, '24h', 0)\nORDER BY creation",
          "refId": "F",
          "select": [
            [
              {
                "params": [
                  "idImprimante"
                ],
                "type": "column"
              }
            ]
          ],
          "table": "Imprimante",
          "timeColumn": "dateVerif",
          "timeColumnType": "timestamp",
          "where": [
            {
              "name": "$__timeFilter",
              "params": [],
              "type": "macro"
            }
          ]
        }
      ],
      "thresholds": [],
      "timeFrom": null,
      "timeRegions": [
        {
          "colorMode": "gray",
          "fill": true,
          "fromDayOfWeek": 6,
          "line": false,
          "op": "time",
          "toDayOfWeek": 7
        }
      ],
      "timeShift": null,
      "title": "Historique de recherche de RDV / jour",
      "tooltip": {
        "shared": true,
        "sort": 0,
        "value_type": "individual"
      },
      "type": "graph",
      "xaxis": {
        "buckets": null,
        "mode": "time",
        "name": null,
        "show": true,
        "values": []
      },
      "yaxes": [
        {
          "format": "none",
          "label": null,
          "logBase": 1,
          "max": null,
          "min": null,
          "show": true
        },
        {
          "format": "none",
          "label": null,
          "logBase": 1,
          "max": null,
          "min": null,
          "show": true
        }
      ],
      "yaxis": {
        "align": false,
        "alignLevel": null
      }
    }
  ],
  "refresh": false,
  "schemaVersion": 16,
  "style": "dark",
  "tags": [],
  "templating": {
    "list": []
  },
  "time": {
    "from": "2019-08-20T05:32:58.879Z",
    "to": "2019-12-01T08:07:24.134Z"
  },
  "timepicker": {
    "refresh_intervals": [
      "5s",
      "10s",
      "30s",
      "1m",
      "5m",
      "15m",
      "30m",
      "1h",
      "2h",
      "1d"
    ],
    "time_options": [
      "5m",
      "15m",
      "1h",
      "6h",
      "12h",
      "24h",
      "2d",
      "7d",
      "30d"
    ]
  },
  "timezone": "",
  "title": "DFA - Statistiques Rendez-vous (Ophta)",
  "uid": "S4OXBUhWz",
  "version": 11
}
