{
  "annotations": {
    "list": [
      {
        "builtIn": 1,
        "datasource": "DFA",
        "enable": false,
        "hide": true,
        "iconColor": "rgba(0, 211, 255, 1)",
        "name": "Annotations & Alerts",
        "type": "dashboard"
      }
    ]
  },
  "editable": true,
  "gnetId": null,
  "graphTooltip": 0,
  "id": 71,
  "iteration": 1608625227680,
  "links": [],
  "panels": [
    {
      "columns": [],
      "datasource": "DFA",
      "fontSize": "100%",
      "gridPos": {
        "h": 18,
        "w": 24,
        "x": 0,
        "y": 0
      },
      "id": 2,
      "links": [],
      "pageSize": 100,
      "scroll": true,
      "showHeader": true,
      "sort": {
        "col": 0,
        "desc": true
      },
      "styles": [
        {
          "alias": "Time",
          "dateFormat": "MM/DD/YY h:mm:ss a",
          "pattern": "Time",
          "type": "date"
        },
        {
          "alias": "",
          "colorMode": null,
          "colors": [
            "rgba(245, 54, 54, 0.9)",
            "rgba(237, 129, 40, 0.89)",
            "rgba(50, 172, 45, 0.97)"
          ],
          "dateFormat": "YYYY-MM-DD HH:mm:ss",
          "decimals": 0,
          "mappingType": 1,
          "pattern": "temps_attente",
          "thresholds": [],
          "type": "number",
          "unit": "clocks"
        },
        {
          "alias": "",
          "colorMode": null,
          "colors": [
            "rgba(245, 54, 54, 0.9)",
            "rgba(237, 129, 40, 0.89)",
            "rgba(50, 172, 45, 0.97)"
          ],
          "dateFormat": "YYYY-MM-DD HH:mm:ss",
          "decimals": 0,
          "mappingType": 1,
          "pattern": "temps_entretien",
          "thresholds": [],
          "type": "number",
          "unit": "clocks"
        },
        {
          "alias": "",
          "colorMode": null,
          "colors": [
            "rgba(245, 54, 54, 0.9)",
            "rgba(237, 129, 40, 0.89)",
            "rgba(50, 172, 45, 0.97)"
          ],
          "dateFormat": "YYYY-MM-DD HH:mm:ss",
          "decimals": 0,
          "mappingType": 1,
          "pattern": "temps_prise_en_charge",
          "thresholds": [],
          "type": "number",
          "unit": "clocks"
        },
        {
          "alias": "",
          "colorMode": null,
          "colors": [
            "rgba(245, 54, 54, 0.9)",
            "rgba(237, 129, 40, 0.89)",
            "rgba(50, 172, 45, 0.97)"
          ],
          "dateFormat": "YYYY-MM-DD HH:mm:ss",
          "decimals": 0,
          "mappingType": 1,
          "pattern": "temps_traitement",
          "thresholds": [],
          "type": "number",
          "unit": "clocks"
        },
        {
          "alias": "",
          "colorMode": null,
          "colors": [
            "rgba(245, 54, 54, 0.9)",
            "rgba(237, 129, 40, 0.89)",
            "rgba(50, 172, 45, 0.97)"
          ],
          "dateFormat": "YYYY-MM-DD HH:mm:ss",
          "decimals": 0,
          "mappingType": 1,
          "pattern": "id",
          "thresholds": [],
          "type": "number",
          "unit": "none"
        },
        {
          "alias": "",
          "colorMode": null,
          "colors": [
            "rgba(245, 54, 54, 0.9)",
            "rgba(237, 129, 40, 0.89)",
            "rgba(50, 172, 45, 0.97)"
          ],
          "dateFormat": "DD/MM/YYYY",
          "decimals": 2,
          "mappingType": 1,
          "pattern": "creation",
          "thresholds": [],
          "type": "date",
          "unit": "short"
        },
        {
          "alias": "",
          "colorMode": null,
          "colors": [
            "rgba(245, 54, 54, 0.9)",
            "rgba(237, 129, 40, 0.89)",
            "rgba(50, 172, 45, 0.97)"
          ],
          "dateFormat": "DD/MM/YYYY",
          "decimals": 2,
          "mappingType": 1,
          "pattern": "date_ticket",
          "thresholds": [],
          "type": "date",
          "unit": "short"
        },
        {
          "alias": "",
          "colorMode": null,
          "colors": [
            "rgba(245, 54, 54, 0.9)",
            "rgba(237, 129, 40, 0.89)",
            "rgba(50, 172, 45, 0.97)"
          ],
          "dateFormat": "YYYY-MM-DD HH:mm:ss",
          "decimals": 2,
          "mappingType": 1,
          "pattern": "jour_semaine",
          "thresholds": [],
          "type": "string",
          "unit": "short",
          "valueMaps": [
            {
              "text": "Lundi",
              "value": "1"
            },
            {
              "text": "Mardi",
              "value": "2"
            },
            {
              "text": "Mercredi",
              "value": "3"
            },
            {
              "text": "Jeudi",
              "value": "4"
            },
            {
              "text": "Vendredi",
              "value": "5"
            },
            {
              "text": "Samedi",
              "value": "6"
            },
            {
              "text": "Dimanche",
              "value": "7"
            }
          ]
        },
        {
          "alias": "",
          "colorMode": null,
          "colors": [
            "rgba(245, 54, 54, 0.9)",
            "rgba(237, 129, 40, 0.89)",
            "rgba(50, 172, 45, 0.97)"
          ],
          "decimals": 0,
          "pattern": "/.*/",
          "thresholds": [],
          "type": "number",
          "unit": "short"
        }
      ],
      "targets": [
        {
          "format": "table",
          "group": [],
          "metricColumn": "none",
          "rawQuery": true,
          "rawSql": "SELECT creation, EXTRACT(HOUR FROM creation) as heure, numero_ticket, date_ticket, jour_semaine, nom_secretaire, libelle_salle_attente, libelle_file_attente, temps_attente, temps_entretien, temps_prise_en_charge, temps_traitement \nFROM Statistique_delai_attente\nWHERE $__timeFilter(creation)\nAND libelle_salle_attente IN ($sallesAttente)\nAND libelle_file_attente IN ($filesAttente)\nAND nom_secretaire IN ($utilisateurs)\nAND numero_ticket LIKE \"%$numTicket%\"\n",
          "refId": "A",
          "select": [
            [
              {
                "params": [
                  "value"
                ],
                "type": "column"
              }
            ]
          ],
          "timeColumn": "time",
          "where": [
            {
              "name": "$__timeFilter",
              "params": [],
              "type": "macro"
            }
          ]
        }
      ],
      "title": "Statistiques par Ticket",
      "transform": "table",
      "type": "table"
    }
  ],
  "refresh": "1m",
  "schemaVersion": 16,
  "style": "dark",
  "tags": [],
  "templating": {
    "list": [
      {
        "current": {
          "text": "",
          "value": ""
        },
        "hide": 0,
        "label": "N° Ticket",
        "name": "numTicket",
        "options": [
          {
            "text": "",
            "value": ""
          }
        ],
        "query": "",
        "skipUrlSync": false,
        "type": "textbox"
      },
      {
        "allValue": null,
        "current": {
          "tags": [],
          "text": "All",
          "value": "$__all"
        },
        "datasource": "DFA",
        "definition": "SELECT Nom_salle_attente FROM Salles_attente",
        "hide": 0,
        "includeAll": true,
        "label": "Salles d'attente",
        "multi": false,
        "name": "sallesAttente",
        "options": [
          {
            "selected": true,
            "text": "All",
            "value": "$__all"
          },
          {
            "selected": false,
            "text": "IMAGERIE",
            "value": "IMAGERIE"
          },
          {
            "selected": false,
            "text": "Salle d'attente consultations / Admissions",
            "value": "Salle d'attente consultations / Admissions"
          },
          {
            "selected": false,
            "text": "SALLE D'ATTENTE TEST",
            "value": "SALLE D'ATTENTE TEST"
          }
        ],
        "query": "SELECT Nom_salle_attente FROM Salles_attente",
        "refresh": 0,
        "regex": "",
        "skipUrlSync": false,
        "sort": 0,
        "tagValuesQuery": "",
        "tags": [],
        "tagsQuery": "",
        "type": "query",
        "useTags": false
      },
      {
        "allValue": null,
        "current": {
          "tags": [],
          "text": "All",
          "value": "$__all"
        },
        "datasource": "DFA",
        "definition": "SELECT lf.libelle_FA FROM Libelle_FA lf          LEFT JOIN Files_attente fa ON (lf.idFile_attente = fa.idFile_attente)          LEFT JOIN Salles_attente sa ON (fa.id_salle_attente = sa.idSalle_attente) WHERE lf.idLangue = 1 AND sa.Nom_salle_attente = [[sallesAttente]]",
        "hide": 0,
        "includeAll": true,
        "label": "Files d'attente",
        "multi": false,
        "name": "filesAttente",
        "options": [
          {
            "selected": true,
            "text": "All",
            "value": "$__all"
          },
          {
            "selected": false,
            "text": "CARTE VITALE & DROITS",
            "value": "CARTE VITALE & DROITS"
          },
          {
            "selected": false,
            "text": "RADIO - INFILTRATION",
            "value": "RADIO - INFILTRATION"
          },
          {
            "selected": false,
            "text": "IRM",
            "value": "IRM"
          },
          {
            "selected": false,
            "text": "SCANNER",
            "value": "SCANNER"
          },
          {
            "selected": false,
            "text": "VOUS AVEZ RENDEZ-VOUS",
            "value": "VOUS AVEZ RENDEZ-VOUS"
          },
          {
            "selected": false,
            "text": "ECHOGRAPHIE",
            "value": "ECHOGRAPHIE"
          },
          {
            "selected": false,
            "text": "IRM Manipulateur",
            "value": "IRM Manipulateur"
          },
          {
            "selected": false,
            "text": "SORTIE",
            "value": "SORTIE"
          },
          {
            "selected": false,
            "text": "Radio Manipulateur",
            "value": "Radio Manipulateur"
          },
          {
            "selected": false,
            "text": "Scanner Manipulateur",
            "value": "Scanner Manipulateur"
          },
          {
            "selected": false,
            "text": "Echo Manipulateur",
            "value": "Echo Manipulateur"
          },
          {
            "selected": false,
            "text": "RETRAIT RESULTAT - 1ER ETAGE",
            "value": "RETRAIT RESULTAT - 1ER ETAGE"
          },
          {
            "selected": false,
            "text": "Prendre rendez-vous",
            "value": "Prendre rendez-vous"
          },
          {
            "selected": false,
            "text": "ECHEC RENDEZ-VOUS",
            "value": "ECHEC RENDEZ-VOUS"
          },
          {
            "selected": false,
            "text": "QR Code",
            "value": "QR Code"
          },
          {
            "selected": false,
            "text": "Paiement - IVT",
            "value": "Paiement - IVT"
          },
          {
            "selected": false,
            "text": "SORTIE AMBULATOIRE",
            "value": "SORTIE AMBULATOIRE"
          },
          {
            "selected": false,
            "text": "SORTIE SOINS EXTERNES",
            "value": "SORTIE SOINS EXTERNES"
          },
          {
            "selected": false,
            "text": "IDENTIFIEZ-VOUS",
            "value": "IDENTIFIEZ-VOUS"
          },
          {
            "selected": false,
            "text": "ENTRÉE",
            "value": "ENTRÉE"
          },
          {
            "selected": false,
            "text": "ENDOSCOPIE DIGESTIVE",
            "value": "ENDOSCOPIE DIGESTIVE"
          },
          {
            "selected": false,
            "text": "CHIRURGIE AMBULATOIRE",
            "value": "CHIRURGIE AMBULATOIRE"
          },
          {
            "selected": false,
            "text": "HOSPITALISATION COMPLETE",
            "value": "HOSPITALISATION COMPLETE"
          },
          {
            "selected": false,
            "text": "J'AI EFFECTUE MON ADMISSION EN LIGNE",
            "value": "J'AI EFFECTUE MON ADMISSION EN LIGNE"
          },
          {
            "selected": false,
            "text": "Hôtellerie",
            "value": "Hôtellerie"
          },
          {
            "selected": false,
            "text": "Sortie",
            "value": "Sortie"
          },
          {
            "selected": false,
            "text": "Entrée",
            "value": "Entrée"
          },
          {
            "selected": false,
            "text": "Pré-inscription",
            "value": "Pré-inscription"
          }
        ],
        "query": "SELECT lf.libelle_FA FROM Libelle_FA lf          LEFT JOIN Files_attente fa ON (lf.idFile_attente = fa.idFile_attente)          LEFT JOIN Salles_attente sa ON (fa.id_salle_attente = sa.idSalle_attente) WHERE lf.idLangue = 1 AND sa.Nom_salle_attente = [[sallesAttente]]",
        "refresh": 0,
        "regex": "",
        "skipUrlSync": false,
        "sort": 0,
        "tagValuesQuery": "",
        "tags": [],
        "tagsQuery": "",
        "type": "query",
        "useTags": false
      },
      {
        "allValue": null,
        "current": {
          "tags": [],
          "text": "All",
          "value": "$__all"
        },
        "datasource": "DFA",
        "definition": "select concat(Nom, ' ', Prenom) from Utilisateurs",
        "hide": 0,
        "includeAll": true,
        "label": "Utilisateurs",
        "multi": false,
        "name": "utilisateurs",
        "options": [
          {
            "selected": true,
            "text": "All",
            "value": "$__all"
          },
          {
            "selected": false,
            "text": "Administrateur Défaut",
            "value": "Administrateur Défaut"
          },
          {
            "selected": false,
            "text": "Dupond Jeannine",
            "value": "Dupond Jeannine"
          },
          {
            "selected": false,
            "text": "Secretaire 1",
            "value": "Secretaire 1"
          },
          {
            "selected": false,
            "text": "Secretaire 2",
            "value": "Secretaire 2"
          },
          {
            "selected": false,
            "text": "Secrétaire 3",
            "value": "Secrétaire 3"
          },
          {
            "selected": false,
            "text": "Secretaire 4",
            "value": "Secretaire 4"
          },
          {
            "selected": false,
            "text": "manip 2",
            "value": "manip 2"
          },
          {
            "selected": false,
            "text": "manip scan",
            "value": "manip scan"
          },
          {
            "selected": false,
            "text": "manip 4",
            "value": "manip 4"
          },
          {
            "selected": false,
            "text": "Sec 5",
            "value": "Sec 5"
          },
          {
            "selected": false,
            "text": "LAURENT Dominique",
            "value": "LAURENT Dominique"
          },
          {
            "selected": false,
            "text": "MANIP 1",
            "value": "MANIP 1"
          },
          {
            "selected": false,
            "text": "Dictee 2",
            "value": "Dictee 2"
          },
          {
            "selected": false,
            "text": "KOUBA Catherine",
            "value": "KOUBA Catherine"
          },
          {
            "selected": false,
            "text": "Laterrade Delphine",
            "value": "Laterrade Delphine"
          },
          {
            "selected": false,
            "text": "Ledreck Christine",
            "value": "Ledreck Christine"
          },
          {
            "selected": false,
            "text": "mimpontel elisabeth",
            "value": "mimpontel elisabeth"
          },
          {
            "selected": false,
            "text": "SAFRAN Stephane",
            "value": "SAFRAN Stephane"
          },
          {
            "selected": false,
            "text": "MARTIN marie",
            "value": "MARTIN marie"
          },
          {
            "selected": false,
            "text": "MANIP Secours",
            "value": "MANIP Secours"
          },
          {
            "selected": false,
            "text": "Roberta Annie",
            "value": "Roberta Annie"
          },
          {
            "selected": false,
            "text": "Jackson Samuel",
            "value": "Jackson Samuel"
          },
          {
            "selected": false,
            "text": "COSTA Baptiste",
            "value": "COSTA Baptiste"
          },
          {
            "selected": false,
            "text": "MICHEL Rachel",
            "value": "MICHEL Rachel"
          },
          {
            "selected": false,
            "text": "ANDRE Léa",
            "value": "ANDRE Léa"
          }
        ],
        "query": "select concat(Nom, ' ', Prenom) from Utilisateurs",
        "refresh": 0,
        "regex": "",
        "skipUrlSync": false,
        "sort": 0,
        "tagValuesQuery": "",
        "tags": [],
        "tagsQuery": "",
        "type": "query",
        "useTags": false
      }
    ]
  },
  "time": {
    "from": "now-90d",
    "to": "now"
  },
  "timepicker": {
    "refresh_intervals": [
      "5s",
      "10s",
      "30s",
      "1m",
      "5m",
      "15m",
      "30m",
      "1h",
      "2h",
      "1d"
    ],
    "time_options": [
      "5m",
      "15m",
      "1h",
      "6h",
      "12h",
      "24h",
      "2d",
      "7d",
      "30d"
    ]
  },
  "timezone": "",
  "title": "DFA - Statistiques par Ticket",
  "uid": "FrcrT6oGk",
  "version": 10
}
