{
  "annotations": {
    "list": [
      {
        "builtIn": 1,
        "datasource": "DFA",
        "enable": false,
        "hide": true,
        "iconColor": "rgba(0, 211, 255, 1)",
        "name": "Annotations & Alerts",
        "type": "dashboard"
      }
    ]
  },
  "editable": true,
  "gnetId": null,
  "graphTooltip": 0,
  "id": 60,
  "iteration": 1608625232716,
  "links": [],
  "panels": [
    {
      "aliasColors": {},
      "bars": true,
      "dashLength": 10,
      "dashes": false,
      "datasource": "DFA",
      "decimals": null,
      "description": "Temps séparant l'impression d'un ticket et le moment ou il a été appelé par une secrétaire.",
      "fill": 1,
      "gridPos": {
        "h": 10,
        "w": 12,
        "x": 0,
        "y": 0
      },
      "id": 2,
      "legend": {
        "alignAsTable": true,
        "avg": true,
        "current": false,
        "hideEmpty": false,
        "hideZero": false,
        "max": false,
        "min": false,
        "rightSide": true,
        "show": true,
        "total": false,
        "values": true
      },
      "lines": false,
      "linewidth": 1,
      "links": [],
      "nullPointMode": "null",
      "percentage": false,
      "pointradius": 5,
      "points": false,
      "renderer": "flot",
      "seriesOverrides": [
        {
          "alias": "A-series"
        }
      ],
      "spaceLength": 10,
      "stack": false,
      "steppedLine": false,
      "targets": [
        {
          "format": "time_series",
          "group": [],
          "hide": false,
          "metricColumn": "none",
          "rawQuery": true,
          "rawSql": "SELECT \ndate_ticket as time,\nSUM(temps_attente) as 'Lundi'\nFROM Statistique_delai_attente\nWHERE $__timeFilter(date_ticket)\nAND jour_semaine = 1\nAND libelle_file_source_transfert = '[[filesSourceTransfert]]'\nAND libelle_file_attente = '[[fileAttente]]'\ngroup BY numero_ticket, date_ticket",
          "refId": "A",
          "select": [
            [
              {
                "params": [
                  "idImprimante"
                ],
                "type": "column"
              }
            ]
          ],
          "table": "Imprimante",
          "timeColumn": "dateVerif",
          "timeColumnType": "timestamp",
          "where": [
            {
              "name": "$__timeFilter",
              "params": [],
              "type": "macro"
            }
          ]
        },
        {
          "format": "time_series",
          "group": [],
          "metricColumn": "none",
          "rawQuery": true,
          "rawSql": "SELECT \ndate_ticket as time,\nSUM(temps_attente) as 'Mardi'\nFROM Statistique_delai_attente\nWHERE $__timeFilter(date_ticket)\nAND jour_semaine = 2\nAND libelle_file_source_transfert = '[[filesSourceTransfert]]'\nAND libelle_file_attente = '[[fileAttente]]'\ngroup BY numero_ticket, date_ticket",
          "refId": "B",
          "select": [
            [
              {
                "params": [
                  "idDonnees_carte_vitale"
                ],
                "type": "column"
              }
            ]
          ],
          "table": "Donnees_carte_vitale",
          "timeColumn": "Creation",
          "timeColumnType": "timestamp",
          "where": [
            {
              "name": "$__timeFilter",
              "params": [],
              "type": "macro"
            }
          ]
        },
        {
          "format": "time_series",
          "group": [],
          "metricColumn": "none",
          "rawQuery": true,
          "rawSql": "SELECT \ndate_ticket as time,\nSUM(temps_attente) as 'Mercredi'\nFROM Statistique_delai_attente\nWHERE $__timeFilter(date_ticket)\nAND jour_semaine = 3\nAND libelle_file_source_transfert = '[[filesSourceTransfert]]'\nAND libelle_file_attente = '[[fileAttente]]'\ngroup BY numero_ticket, date_ticket\n",
          "refId": "C",
          "select": [
            [
              {
                "params": [
                  "idDonnees_carte_vitale"
                ],
                "type": "column"
              }
            ]
          ],
          "table": "Donnees_carte_vitale",
          "timeColumn": "Creation",
          "timeColumnType": "timestamp",
          "where": [
            {
              "name": "$__timeFilter",
              "params": [],
              "type": "macro"
            }
          ]
        },
        {
          "format": "time_series",
          "group": [],
          "metricColumn": "none",
          "rawQuery": true,
          "rawSql": "SELECT \ndate_ticket as time,\nSUM(temps_attente) as 'Jeudi'\nFROM Statistique_delai_attente\nWHERE $__timeFilter(date_ticket)\nAND jour_semaine = 4\nAND libelle_file_source_transfert = '[[filesSourceTransfert]]'\nAND libelle_file_attente = '[[fileAttente]]'\ngroup BY numero_ticket, date_ticket\n",
          "refId": "D",
          "select": [
            [
              {
                "params": [
                  "idDonnees_carte_vitale"
                ],
                "type": "column"
              }
            ]
          ],
          "table": "Donnees_carte_vitale",
          "timeColumn": "Creation",
          "timeColumnType": "timestamp",
          "where": [
            {
              "name": "$__timeFilter",
              "params": [],
              "type": "macro"
            }
          ]
        },
        {
          "format": "time_series",
          "group": [],
          "metricColumn": "none",
          "rawQuery": true,
          "rawSql": "SELECT \ndate_ticket as time,\nSUM(temps_attente) as 'Vendredi'\nFROM Statistique_delai_attente\nWHERE $__timeFilter(date_ticket)\nAND jour_semaine = 5\nAND libelle_file_source_transfert = '[[filesSourceTransfert]]'\nAND libelle_file_attente = '[[fileAttente]]'\ngroup BY numero_ticket, date_ticket\n",
          "refId": "E",
          "select": [
            [
              {
                "params": [
                  "idDonnees_carte_vitale"
                ],
                "type": "column"
              }
            ]
          ],
          "table": "Donnees_carte_vitale",
          "timeColumn": "Creation",
          "timeColumnType": "timestamp",
          "where": [
            {
              "name": "$__timeFilter",
              "params": [],
              "type": "macro"
            }
          ]
        },
        {
          "format": "time_series",
          "group": [],
          "metricColumn": "none",
          "rawQuery": true,
          "rawSql": "SELECT \ndate_ticket as time,\nSUM(temps_attente) as 'Samedi'\nFROM Statistique_delai_attente\nWHERE $__timeFilter(date_ticket)\nAND jour_semaine = 6\nAND libelle_file_source_transfert = '[[filesSourceTransfert]]'\nAND libelle_file_attente = '[[fileAttente]]'\ngroup BY numero_ticket, date_ticket\n",
          "refId": "F",
          "select": [
            [
              {
                "params": [
                  "idDonnees_carte_vitale"
                ],
                "type": "column"
              }
            ]
          ],
          "table": "Donnees_carte_vitale",
          "timeColumn": "Creation",
          "timeColumnType": "timestamp",
          "where": [
            {
              "name": "$__timeFilter",
              "params": [],
              "type": "macro"
            }
          ]
        },
        {
          "format": "time_series",
          "group": [],
          "metricColumn": "none",
          "rawQuery": true,
          "rawSql": "SELECT \ndate_ticket as time,\nSUM(temps_attente) as 'Dimanche'\nFROM Statistique_delai_attente\nWHERE $__timeFilter(date_ticket)\nAND jour_semaine = 7\nAND libelle_file_source_transfert = '[[filesSourceTransfert]]'\nAND libelle_file_attente = '[[fileAttente]]'\ngroup BY numero_ticket, date_ticket\n",
          "refId": "G",
          "select": [
            [
              {
                "params": [
                  "idDonnees_carte_vitale"
                ],
                "type": "column"
              }
            ]
          ],
          "table": "Donnees_carte_vitale",
          "timeColumn": "Creation",
          "timeColumnType": "timestamp",
          "where": [
            {
              "name": "$__timeFilter",
              "params": [],
              "type": "macro"
            }
          ]
        }
      ],
      "thresholds": [],
      "timeFrom": null,
      "timeRegions": [],
      "timeShift": null,
      "title": "Temps attente",
      "tooltip": {
        "shared": false,
        "sort": 0,
        "value_type": "individual"
      },
      "transparent": false,
      "type": "graph",
      "xaxis": {
        "buckets": null,
        "mode": "series",
        "name": null,
        "show": true,
        "values": [
          "avg"
        ]
      },
      "yaxes": [
        {
          "decimals": 0,
          "format": "clocks",
          "label": null,
          "logBase": 1,
          "max": null,
          "min": "0",
          "show": true
        },
        {
          "decimals": 0,
          "format": "none",
          "label": null,
          "logBase": 1,
          "max": null,
          "min": null,
          "show": true
        }
      ],
      "yaxis": {
        "align": false,
        "alignLevel": null
      }
    },
    {
      "aliasColors": {},
      "bars": true,
      "dashLength": 10,
      "dashes": false,
      "datasource": "DFA",
      "description": "Temps séparant l'appel d'un patient et l’acquittement de son ticket.",
      "fill": 1,
      "gridPos": {
        "h": 10,
        "w": 12,
        "x": 12,
        "y": 0
      },
      "id": 6,
      "legend": {
        "alignAsTable": true,
        "avg": true,
        "current": false,
        "hideEmpty": false,
        "hideZero": false,
        "max": false,
        "min": false,
        "rightSide": true,
        "show": true,
        "total": false,
        "values": true
      },
      "lines": false,
      "linewidth": 1,
      "links": [],
      "nullPointMode": "null",
      "percentage": false,
      "pointradius": 5,
      "points": false,
      "renderer": "flot",
      "seriesOverrides": [],
      "spaceLength": 10,
      "stack": false,
      "steppedLine": false,
      "targets": [
        {
          "format": "time_series",
          "group": [],
          "metricColumn": "none",
          "rawQuery": true,
          "rawSql": "SELECT \ndate_ticket as time,\nAVG(temps_prise_en_charge) as 'Lundi'\nFROM Statistique_delai_attente\nWHERE $__timeFilter(date_ticket)\nAND jour_semaine = 1\nAND libelle_file_source_transfert = '[[filesSourceTransfert]]'\nAND libelle_file_attente = '[[fileAttente]]'\ngroup BY date_ticket, numero_ticket",
          "refId": "A",
          "select": [
            [
              {
                "params": [
                  "idImprimante"
                ],
                "type": "column"
              }
            ]
          ],
          "table": "Imprimante",
          "timeColumn": "dateVerif",
          "timeColumnType": "timestamp",
          "where": [
            {
              "name": "$__timeFilter",
              "params": [],
              "type": "macro"
            }
          ]
        },
        {
          "format": "time_series",
          "group": [],
          "metricColumn": "none",
          "rawQuery": true,
          "rawSql": "SELECT \ndate_ticket as time,\nAVG(temps_prise_en_charge) as 'Mardi'\nFROM Statistique_delai_attente\nWHERE $__timeFilter(date_ticket)\nAND jour_semaine = 2\nAND libelle_file_source_transfert = '[[filesSourceTransfert]]'\nAND libelle_file_attente = '[[fileAttente]]'\ngroup BY date_ticket, numero_ticket\n",
          "refId": "B",
          "select": [
            [
              {
                "params": [
                  "idDonnees_carte_vitale"
                ],
                "type": "column"
              }
            ]
          ],
          "table": "Donnees_carte_vitale",
          "timeColumn": "Creation",
          "timeColumnType": "timestamp",
          "where": [
            {
              "name": "$__timeFilter",
              "params": [],
              "type": "macro"
            }
          ]
        },
        {
          "format": "time_series",
          "group": [],
          "metricColumn": "none",
          "rawQuery": true,
          "rawSql": "SELECT \ndate_ticket as time,\nAVG(temps_prise_en_charge) as 'Mercredi'\nFROM Statistique_delai_attente\nWHERE $__timeFilter(date_ticket)\nAND jour_semaine = 3\nAND libelle_file_source_transfert = '[[filesSourceTransfert]]'\nAND libelle_file_attente = '[[fileAttente]]'\ngroup BY date_ticket, numero_ticket\n",
          "refId": "C",
          "select": [
            [
              {
                "params": [
                  "idDonnees_carte_vitale"
                ],
                "type": "column"
              }
            ]
          ],
          "table": "Donnees_carte_vitale",
          "timeColumn": "Creation",
          "timeColumnType": "timestamp",
          "where": [
            {
              "name": "$__timeFilter",
              "params": [],
              "type": "macro"
            }
          ]
        },
        {
          "format": "time_series",
          "group": [],
          "metricColumn": "none",
          "rawQuery": true,
          "rawSql": "SELECT \ndate_ticket as time,\nAVG(temps_prise_en_charge) as 'Jeudi'\nFROM Statistique_delai_attente\nWHERE $__timeFilter(date_ticket)\nAND jour_semaine = 4\nAND libelle_file_source_transfert = '[[filesSourceTransfert]]'\nAND libelle_file_attente = '[[fileAttente]]'\ngroup BY date_ticket, numero_ticket",
          "refId": "D",
          "select": [
            [
              {
                "params": [
                  "idDonnees_carte_vitale"
                ],
                "type": "column"
              }
            ]
          ],
          "table": "Donnees_carte_vitale",
          "timeColumn": "Creation",
          "timeColumnType": "timestamp",
          "where": [
            {
              "name": "$__timeFilter",
              "params": [],
              "type": "macro"
            }
          ]
        },
        {
          "format": "time_series",
          "group": [],
          "metricColumn": "none",
          "rawQuery": true,
          "rawSql": "SELECT \ndate_ticket as time,\nAVG(temps_prise_en_charge) as 'Vendredi'\nFROM Statistique_delai_attente\nWHERE $__timeFilter(date_ticket)\nAND jour_semaine = 5\nAND libelle_file_source_transfert = '[[filesSourceTransfert]]'\nAND libelle_file_attente = '[[fileAttente]]'\ngroup BY date_ticket, numero_ticket",
          "refId": "E",
          "select": [
            [
              {
                "params": [
                  "idDonnees_carte_vitale"
                ],
                "type": "column"
              }
            ]
          ],
          "table": "Donnees_carte_vitale",
          "timeColumn": "Creation",
          "timeColumnType": "timestamp",
          "where": [
            {
              "name": "$__timeFilter",
              "params": [],
              "type": "macro"
            }
          ]
        },
        {
          "format": "time_series",
          "group": [],
          "metricColumn": "none",
          "rawQuery": true,
          "rawSql": "SELECT \ndate_ticket as time,\nAVG(temps_prise_en_charge) as 'Samedi'\nFROM Statistique_delai_attente\nWHERE $__timeFilter(date_ticket)\nAND jour_semaine = 6\nAND libelle_file_source_transfert = '[[filesSourceTransfert]]'\nAND libelle_file_attente = '[[fileAttente]]'\ngroup BY date_ticket, numero_ticket",
          "refId": "F",
          "select": [
            [
              {
                "params": [
                  "idDonnees_carte_vitale"
                ],
                "type": "column"
              }
            ]
          ],
          "table": "Donnees_carte_vitale",
          "timeColumn": "Creation",
          "timeColumnType": "timestamp",
          "where": [
            {
              "name": "$__timeFilter",
              "params": [],
              "type": "macro"
            }
          ]
        },
        {
          "format": "time_series",
          "group": [],
          "metricColumn": "none",
          "rawQuery": true,
          "rawSql": "SELECT \ndate_ticket as time,\nAVG(temps_prise_en_charge) as 'Dimanche'\nFROM Statistique_delai_attente\nWHERE $__timeFilter(date_ticket)\nAND jour_semaine = 7\nAND libelle_file_source_transfert = '[[filesSourceTransfert]]'\nAND libelle_file_attente = '[[fileAttente]]'\ngroup BY date_ticket, numero_ticket",
          "refId": "G",
          "select": [
            [
              {
                "params": [
                  "idDonnees_carte_vitale"
                ],
                "type": "column"
              }
            ]
          ],
          "table": "Donnees_carte_vitale",
          "timeColumn": "Creation",
          "timeColumnType": "timestamp",
          "where": [
            {
              "name": "$__timeFilter",
              "params": [],
              "type": "macro"
            }
          ]
        }
      ],
      "thresholds": [],
      "timeFrom": null,
      "timeRegions": [],
      "timeShift": null,
      "title": "Temps prise en charge",
      "tooltip": {
        "shared": false,
        "sort": 0,
        "value_type": "individual"
      },
      "type": "graph",
      "xaxis": {
        "buckets": null,
        "mode": "series",
        "name": null,
        "show": true,
        "values": [
          "avg"
        ]
      },
      "yaxes": [
        {
          "decimals": 0,
          "format": "clocks",
          "label": null,
          "logBase": 1,
          "max": null,
          "min": "0",
          "show": true
        },
        {
          "decimals": 0,
          "format": "none",
          "label": null,
          "logBase": 1,
          "max": null,
          "min": null,
          "show": true
        }
      ],
      "yaxis": {
        "align": false,
        "alignLevel": null
      }
    },
    {
      "aliasColors": {},
      "bars": true,
      "dashLength": 10,
      "dashes": false,
      "datasource": "DFA",
      "description": "Temps séparant le début d'un entretien et sa clôture",
      "fill": 1,
      "gridPos": {
        "h": 10,
        "w": 12,
        "x": 0,
        "y": 10
      },
      "id": 4,
      "legend": {
        "alignAsTable": true,
        "avg": true,
        "current": false,
        "max": false,
        "min": false,
        "rightSide": true,
        "show": true,
        "total": false,
        "values": true
      },
      "lines": false,
      "linewidth": 1,
      "links": [],
      "nullPointMode": "null",
      "percentage": false,
      "pointradius": 0.5,
      "points": false,
      "renderer": "flot",
      "seriesOverrides": [],
      "spaceLength": 10,
      "stack": false,
      "steppedLine": false,
      "targets": [
        {
          "format": "time_series",
          "group": [],
          "metricColumn": "none",
          "rawQuery": true,
          "rawSql": "SELECT \ndate_ticket as time,\nSUM(temps_entretien) as 'Lundi'\nFROM Statistique_delai_attente\nWHERE $__timeFilter(date_ticket)\nAND jour_semaine = 1\nAND libelle_file_source_transfert = '[[filesSourceTransfert]]'\nAND libelle_file_attente = '[[fileAttente]]'\ngroup BY numero_ticket, date_ticket",
          "refId": "A",
          "select": [
            [
              {
                "params": [
                  "idImprimante"
                ],
                "type": "column"
              }
            ]
          ],
          "table": "Imprimante",
          "timeColumn": "dateVerif",
          "timeColumnType": "timestamp",
          "where": [
            {
              "name": "$__timeFilter",
              "params": [],
              "type": "macro"
            }
          ]
        },
        {
          "format": "time_series",
          "group": [],
          "metricColumn": "none",
          "rawQuery": true,
          "rawSql": "SELECT \ndate_ticket as time,\nSUM(temps_entretien) as 'Mardi'\nFROM Statistique_delai_attente\nWHERE $__timeFilter(date_ticket)\nAND jour_semaine = 2\nAND libelle_file_source_transfert = '[[filesSourceTransfert]]'\nAND libelle_file_attente = '[[fileAttente]]'\ngroup BY numero_ticket, date_ticket\n",
          "refId": "B",
          "select": [
            [
              {
                "params": [
                  "idDonnees_carte_vitale"
                ],
                "type": "column"
              }
            ]
          ],
          "table": "Donnees_carte_vitale",
          "timeColumn": "Creation",
          "timeColumnType": "timestamp",
          "where": [
            {
              "name": "$__timeFilter",
              "params": [],
              "type": "macro"
            }
          ]
        },
        {
          "format": "time_series",
          "group": [],
          "metricColumn": "none",
          "rawQuery": true,
          "rawSql": "SELECT \ndate_ticket as time,\nSUM(temps_entretien) as 'Mercredi'\nFROM Statistique_delai_attente\nWHERE $__timeFilter(date_ticket)\nAND jour_semaine = 3\nAND libelle_file_source_transfert = '[[filesSourceTransfert]]'\nAND libelle_file_attente = '[[fileAttente]]'\ngroup BY numero_ticket, date_ticket",
          "refId": "C",
          "select": [
            [
              {
                "params": [
                  "idDonnees_carte_vitale"
                ],
                "type": "column"
              }
            ]
          ],
          "table": "Donnees_carte_vitale",
          "timeColumn": "Creation",
          "timeColumnType": "timestamp",
          "where": [
            {
              "name": "$__timeFilter",
              "params": [],
              "type": "macro"
            }
          ]
        },
        {
          "format": "time_series",
          "group": [],
          "metricColumn": "none",
          "rawQuery": true,
          "rawSql": "SELECT \ndate_ticket as time,\nSUM(temps_entretien) as 'Jeudi'\nFROM Statistique_delai_attente\nWHERE $__timeFilter(date_ticket)\nAND jour_semaine = 4\nAND libelle_file_source_transfert = '[[filesSourceTransfert]]'\nAND libelle_file_attente = '[[fileAttente]]'\ngroup BY numero_ticket, date_ticket\n",
          "refId": "D",
          "select": [
            [
              {
                "params": [
                  "idDonnees_carte_vitale"
                ],
                "type": "column"
              }
            ]
          ],
          "table": "Donnees_carte_vitale",
          "timeColumn": "Creation",
          "timeColumnType": "timestamp",
          "where": [
            {
              "name": "$__timeFilter",
              "params": [],
              "type": "macro"
            }
          ]
        },
        {
          "format": "time_series",
          "group": [],
          "metricColumn": "none",
          "rawQuery": true,
          "rawSql": "SELECT \ndate_ticket as time,\nSUM(temps_entretien) as 'Vendredi'\nFROM Statistique_delai_attente\nWHERE $__timeFilter(date_ticket)\nAND jour_semaine = 5\nAND libelle_file_source_transfert = '[[filesSourceTransfert]]'\nAND libelle_file_attente = '[[fileAttente]]'\ngroup BY numero_ticket, date_ticket\n",
          "refId": "E",
          "select": [
            [
              {
                "params": [
                  "idDonnees_carte_vitale"
                ],
                "type": "column"
              }
            ]
          ],
          "table": "Donnees_carte_vitale",
          "timeColumn": "Creation",
          "timeColumnType": "timestamp",
          "where": [
            {
              "name": "$__timeFilter",
              "params": [],
              "type": "macro"
            }
          ]
        },
        {
          "format": "time_series",
          "group": [],
          "metricColumn": "none",
          "rawQuery": true,
          "rawSql": "SELECT \ndate_ticket as time,\nSUM(temps_entretien) as 'Samedi'\nFROM Statistique_delai_attente\nWHERE $__timeFilter(date_ticket)\nAND jour_semaine = 6\nAND libelle_file_source_transfert = '[[filesSourceTransfert]]'\nAND libelle_file_attente = '[[fileAttente]]'\ngroup BY numero_ticket, date_ticket\n",
          "refId": "F",
          "select": [
            [
              {
                "params": [
                  "idDonnees_carte_vitale"
                ],
                "type": "column"
              }
            ]
          ],
          "table": "Donnees_carte_vitale",
          "timeColumn": "Creation",
          "timeColumnType": "timestamp",
          "where": [
            {
              "name": "$__timeFilter",
              "params": [],
              "type": "macro"
            }
          ]
        },
        {
          "format": "time_series",
          "group": [],
          "metricColumn": "none",
          "rawQuery": true,
          "rawSql": "SELECT \ndate_ticket as time,\nSUM(temps_entretien) as 'Dimanche'\nFROM Statistique_delai_attente\nWHERE $__timeFilter(date_ticket)\nAND jour_semaine = 7\nAND libelle_file_source_transfert = '[[filesSourceTransfert]]'\nAND libelle_file_attente = '[[fileAttente]]'\ngroup BY numero_ticket, date_ticket\n",
          "refId": "G",
          "select": [
            [
              {
                "params": [
                  "idDonnees_carte_vitale"
                ],
                "type": "column"
              }
            ]
          ],
          "table": "Donnees_carte_vitale",
          "timeColumn": "Creation",
          "timeColumnType": "timestamp",
          "where": [
            {
              "name": "$__timeFilter",
              "params": [],
              "type": "macro"
            }
          ]
        }
      ],
      "thresholds": [],
      "timeFrom": null,
      "timeRegions": [],
      "timeShift": null,
      "title": "Temps entretien",
      "tooltip": {
        "shared": false,
        "sort": 0,
        "value_type": "individual"
      },
      "type": "graph",
      "xaxis": {
        "buckets": null,
        "mode": "series",
        "name": null,
        "show": true,
        "values": [
          "avg"
        ]
      },
      "yaxes": [
        {
          "decimals": 0,
          "format": "clocks",
          "label": null,
          "logBase": 1,
          "max": null,
          "min": "0",
          "show": true
        },
        {
          "decimals": 0,
          "format": "none",
          "label": null,
          "logBase": 1,
          "max": null,
          "min": null,
          "show": false
        }
      ],
      "yaxis": {
        "align": false,
        "alignLevel": null
      }
    },
    {
      "aliasColors": {},
      "bars": true,
      "dashLength": 10,
      "dashes": false,
      "datasource": "DFA",
      "decimals": null,
      "description": "Temps séparant l'impression d'un ticket et l’acquittement de celui-ci.",
      "fill": 1,
      "gridPos": {
        "h": 10,
        "w": 12,
        "x": 12,
        "y": 10
      },
      "id": 7,
      "legend": {
        "alignAsTable": true,
        "avg": true,
        "current": false,
        "max": false,
        "min": false,
        "rightSide": true,
        "show": true,
        "total": false,
        "values": true
      },
      "lines": false,
      "linewidth": 1,
      "links": [],
      "nullPointMode": "null",
      "percentage": false,
      "pointradius": 5,
      "points": false,
      "renderer": "flot",
      "seriesOverrides": [
        {
          "alias": "A-series"
        }
      ],
      "spaceLength": 10,
      "stack": false,
      "steppedLine": false,
      "targets": [
        {
          "format": "time_series",
          "group": [],
          "hide": false,
          "metricColumn": "none",
          "rawQuery": true,
          "rawSql": "SELECT \ndate_ticket as time,\nSUM(temps_traitement) as 'Lundi'\nFROM Statistique_delai_attente\nWHERE $__timeFilter(date_ticket)\nAND jour_semaine = 1\nAND libelle_file_source_transfert = '[[filesSourceTransfert]]'\nAND libelle_file_attente = '[[fileAttente]]'\ngroup BY numero_ticket, date_ticket",
          "refId": "A",
          "select": [
            [
              {
                "params": [
                  "idImprimante"
                ],
                "type": "column"
              }
            ]
          ],
          "table": "Imprimante",
          "timeColumn": "dateVerif",
          "timeColumnType": "timestamp",
          "where": [
            {
              "name": "$__timeFilter",
              "params": [],
              "type": "macro"
            }
          ]
        },
        {
          "format": "time_series",
          "group": [],
          "metricColumn": "none",
          "rawQuery": true,
          "rawSql": "SELECT \ndate_ticket as time,\nSUM(temps_traitement) as 'Mardi'\nFROM Statistique_delai_attente\nWHERE $__timeFilter(date_ticket)\nAND jour_semaine = 2\nAND libelle_file_source_transfert = '[[filesSourceTransfert]]'\nAND libelle_file_attente = '[[fileAttente]]'\ngroup BY numero_ticket, date_ticket",
          "refId": "B",
          "select": [
            [
              {
                "params": [
                  "idDonnees_carte_vitale"
                ],
                "type": "column"
              }
            ]
          ],
          "table": "Donnees_carte_vitale",
          "timeColumn": "Creation",
          "timeColumnType": "timestamp",
          "where": [
            {
              "name": "$__timeFilter",
              "params": [],
              "type": "macro"
            }
          ]
        },
        {
          "format": "time_series",
          "group": [],
          "metricColumn": "none",
          "rawQuery": true,
          "rawSql": "SELECT \ndate_ticket as time,\nSUM(temps_traitement) as 'Mercredi'\nFROM Statistique_delai_attente\nWHERE $__timeFilter(date_ticket)\nAND jour_semaine = 3\nAND libelle_file_source_transfert = '[[filesSourceTransfert]]'\nAND libelle_file_attente = '[[fileAttente]]'\ngroup BY numero_ticket, date_ticket\n",
          "refId": "C",
          "select": [
            [
              {
                "params": [
                  "idDonnees_carte_vitale"
                ],
                "type": "column"
              }
            ]
          ],
          "table": "Donnees_carte_vitale",
          "timeColumn": "Creation",
          "timeColumnType": "timestamp",
          "where": [
            {
              "name": "$__timeFilter",
              "params": [],
              "type": "macro"
            }
          ]
        },
        {
          "format": "time_series",
          "group": [],
          "metricColumn": "none",
          "rawQuery": true,
          "rawSql": "SELECT \ndate_ticket as time,\nSUM(temps_traitement) as 'Jeudi'\nFROM Statistique_delai_attente\nWHERE $__timeFilter(date_ticket)\nAND jour_semaine = 4\nAND libelle_file_source_transfert = '[[filesSourceTransfert]]'\nAND libelle_file_attente = '[[fileAttente]]'\ngroup BY numero_ticket, date_ticket",
          "refId": "D",
          "select": [
            [
              {
                "params": [
                  "idDonnees_carte_vitale"
                ],
                "type": "column"
              }
            ]
          ],
          "table": "Donnees_carte_vitale",
          "timeColumn": "Creation",
          "timeColumnType": "timestamp",
          "where": [
            {
              "name": "$__timeFilter",
              "params": [],
              "type": "macro"
            }
          ]
        },
        {
          "format": "time_series",
          "group": [],
          "metricColumn": "none",
          "rawQuery": true,
          "rawSql": "SELECT \ndate_ticket as time,\nSUM(temps_traitement) as 'Vendredi'\nFROM Statistique_delai_attente\nWHERE $__timeFilter(date_ticket)\nAND jour_semaine = 5\nAND libelle_file_source_transfert = '[[filesSourceTransfert]]'\nAND libelle_file_attente = '[[fileAttente]]'\ngroup BY numero_ticket, date_ticket\n",
          "refId": "E",
          "select": [
            [
              {
                "params": [
                  "idDonnees_carte_vitale"
                ],
                "type": "column"
              }
            ]
          ],
          "table": "Donnees_carte_vitale",
          "timeColumn": "Creation",
          "timeColumnType": "timestamp",
          "where": [
            {
              "name": "$__timeFilter",
              "params": [],
              "type": "macro"
            }
          ]
        },
        {
          "format": "time_series",
          "group": [],
          "metricColumn": "none",
          "rawQuery": true,
          "rawSql": "SELECT \ndate_ticket as time,\nSUM(temps_traitement) as 'Samedi'\nFROM Statistique_delai_attente\nWHERE $__timeFilter(date_ticket)\nAND jour_semaine = 6\nAND libelle_file_source_transfert = '[[filesSourceTransfert]]'\nAND libelle_file_attente = '[[fileAttente]]'\ngroup BY numero_ticket, date_ticket\n",
          "refId": "F",
          "select": [
            [
              {
                "params": [
                  "idDonnees_carte_vitale"
                ],
                "type": "column"
              }
            ]
          ],
          "table": "Donnees_carte_vitale",
          "timeColumn": "Creation",
          "timeColumnType": "timestamp",
          "where": [
            {
              "name": "$__timeFilter",
              "params": [],
              "type": "macro"
            }
          ]
        },
        {
          "format": "time_series",
          "group": [],
          "metricColumn": "none",
          "rawQuery": true,
          "rawSql": "SELECT \ndate_ticket as time,\nSUM(temps_traitement) as 'Dimanche'\nFROM Statistique_delai_attente\nWHERE $__timeFilter(date_ticket)\nAND jour_semaine = 7\nAND libelle_file_source_transfert = '[[filesSourceTransfert]]'\nAND libelle_file_attente = '[[fileAttente]]'\ngroup BY numero_ticket, date_ticket\n",
          "refId": "G",
          "select": [
            [
              {
                "params": [
                  "idDonnees_carte_vitale"
                ],
                "type": "column"
              }
            ]
          ],
          "table": "Donnees_carte_vitale",
          "timeColumn": "Creation",
          "timeColumnType": "timestamp",
          "where": [
            {
              "name": "$__timeFilter",
              "params": [],
              "type": "macro"
            }
          ]
        }
      ],
      "thresholds": [],
      "timeFrom": null,
      "timeRegions": [],
      "timeShift": null,
      "title": "Temps traitement",
      "tooltip": {
        "shared": false,
        "sort": 0,
        "value_type": "individual"
      },
      "type": "graph",
      "xaxis": {
        "buckets": null,
        "mode": "series",
        "name": null,
        "show": true,
        "values": [
          "avg"
        ]
      },
      "yaxes": [
        {
          "decimals": 0,
          "format": "clocks",
          "label": null,
          "logBase": 1,
          "max": null,
          "min": "0",
          "show": true
        },
        {
          "decimals": 0,
          "format": "none",
          "label": null,
          "logBase": 1,
          "max": null,
          "min": null,
          "show": true
        }
      ],
      "yaxis": {
        "align": false,
        "alignLevel": null
      }
    }
  ],
  "refresh": false,
  "schemaVersion": 16,
  "style": "dark",
  "tags": [],
  "templating": {
    "list": [
      {
        "allValue": null,
        "current": {
          "text": "IMAGERIE",
          "value": "IMAGERIE"
        },
        "datasource": "DFA",
        "definition": "SELECT libelle_salle_attente FROM Statistique_delai_attente",
        "hide": 0,
        "includeAll": false,
        "label": "Salle d'attente",
        "multi": false,
        "name": "salleAttente",
        "options": [],
        "query": "SELECT libelle_salle_attente FROM Statistique_delai_attente",
        "refresh": 2,
        "regex": "",
        "skipUrlSync": false,
        "sort": 1,
        "tagValuesQuery": "",
        "tags": [],
        "tagsQuery": "",
        "type": "query",
        "useTags": false
      },
      {
        "allValue": null,
        "current": {
          "text": "IRM sans carte vitale",
          "value": "IRM sans carte vitale"
        },
        "datasource": "DFA",
        "definition": "SELECT DISTINCT sda.libelle_file_source_transfert FROM Statistique_delai_attente sda WHERE sda.libelle_file_source_transfert IS NOT NULL AND sda.libelle_salle_attente = \"[[salleAttente]]\"",
        "hide": 0,
        "includeAll": false,
        "label": "Files d'attente d'origine",
        "multi": false,
        "name": "filesSourceTransfert",
        "options": [],
        "query": "SELECT DISTINCT sda.libelle_file_source_transfert FROM Statistique_delai_attente sda WHERE sda.libelle_file_source_transfert IS NOT NULL AND sda.libelle_salle_attente = \"[[salleAttente]]\"",
        "refresh": 1,
        "regex": "",
        "skipUrlSync": false,
        "sort": 0,
        "tagValuesQuery": "",
        "tags": [],
        "tagsQuery": "",
        "type": "query",
        "useTags": false
      },
      {
        "allValue": null,
        "current": {
          "text": "IRM Manipulateur",
          "value": "IRM Manipulateur"
        },
        "datasource": "DFA",
        "definition": "SELECT DISTINCT sda.libelle_file_attente FROM Statistique_delai_attente sda            WHERE sda.libelle_file_source_transfert = '[[filesSourceTransfert]]' ",
        "hide": 0,
        "includeAll": false,
        "label": "Files d'attente de destination",
        "multi": false,
        "name": "fileAttente",
        "options": [],
        "query": "SELECT DISTINCT sda.libelle_file_attente FROM Statistique_delai_attente sda            WHERE sda.libelle_file_source_transfert = '[[filesSourceTransfert]]' ",
        "refresh": 2,
        "regex": "",
        "skipUrlSync": false,
        "sort": 0,
        "tagValuesQuery": "",
        "tags": [],
        "tagsQuery": "",
        "type": "query",
        "useTags": false
      }
    ]
  },
  "time": {
    "from": "now-1y",
    "to": "now"
  },
  "timepicker": {
    "refresh_intervals": [
      "5s",
      "10s",
      "30s",
      "1m",
      "5m",
      "15m",
      "30m",
      "1h",
      "2h",
      "1d"
    ],
    "time_options": [
      "5m",
      "15m",
      "1h",
      "6h",
      "12h",
      "24h",
      "2d",
      "7d",
      "30d"
    ]
  },
  "timezone": "",
  "title": "DFA - Statistiques temps de traitement - Transfert",
  "uid": "EyGHxVyZ19",
  "version": 9
}
