{
  "annotations": {
    "list": [
      {
        "builtIn": 1,
        "datasource": "DFA",
        "enable": false,
        "hide": true,
        "iconColor": "rgba(0, 211, 255, 1)",
        "name": "Annotations & Alerts",
        "type": "dashboard"
      }
    ]
  },
  "editable": true,
  "gnetId": null,
  "graphTooltip": 0,
  "id": 74,
  "iteration": 1608625229784,
  "links": [],
  "panels": [
    {
      "aliasColors": {},
      "bars": true,
      "dashLength": 10,
      "dashes": false,
      "datasource": "DFA",
      "decimals": null,
      "description": "Temps séparant l'impression d'un ticket et le moment ou il a été appelé par une secrétaire.",
      "fill": 1,
      "gridPos": {
        "h": 11,
        "w": 12,
        "x": 0,
        "y": 0
      },
      "id": 2,
      "legend": {
        "alignAsTable": true,
        "avg": true,
        "current": false,
        "max": false,
        "min": false,
        "rightSide": true,
        "show": true,
        "total": false,
        "values": true
      },
      "lines": false,
      "linewidth": 1,
      "links": [],
      "nullPointMode": "null",
      "paceLength": 10,
      "percentage": false,
      "pointradius": 5,
      "points": false,
      "renderer": "flot",
      "seriesOverrides": [
        {
          "alias": "A-series"
        }
      ],
      "spaceLength": 10,
      "stack": false,
      "steppedLine": false,
      "targets": [
        {
          "format": "time_series",
          "group": [],
          "hide": false,
          "metricColumn": "none",
          "rawQuery": true,
          "rawSql": "SELECT \ndate_ticket as time,\nSUM(temps_attente) as '6:00'\nFROM Statistique_delai_attente\nWHERE $__timeFilter(date_ticket)\nAND EXTRACT(HOUR FROM creation) = 6\nAND libelle_salle_attente IN ([[sallesAttente]])\nAND libelle_file_attente IN ([[filesAttente]])\nAND nom_secretaire IN ([[secretaire]])\ngroup BY numero_ticket, date_ticket",
          "refId": "A",
          "select": [
            [
              {
                "params": [
                  "idImprimante"
                ],
                "type": "column"
              }
            ]
          ],
          "table": "Imprimante",
          "timeColumn": "dateVerif",
          "timeColumnType": "timestamp",
          "where": [
            {
              "name": "$__timeFilter",
              "params": [],
              "type": "macro"
            }
          ]
        },
        {
          "format": "time_series",
          "group": [],
          "hide": false,
          "metricColumn": "none",
          "rawQuery": true,
          "rawSql": "SELECT \ndate_ticket as time,\nSUM(temps_attente) as '7:00'\nFROM Statistique_delai_attente\nWHERE $__timeFilter(date_ticket)\nAND EXTRACT(HOUR FROM creation) = 7\nAND libelle_salle_attente IN ([[sallesAttente]])\nAND libelle_file_attente IN ([[filesAttente]])\nAND nom_secretaire IN ([[secretaire]])\ngroup BY numero_ticket, date_ticket",
          "refId": "B",
          "select": [
            [
              {
                "params": [
                  "idImprimante"
                ],
                "type": "column"
              }
            ]
          ],
          "table": "Imprimante",
          "timeColumn": "dateVerif",
          "timeColumnType": "timestamp",
          "where": [
            {
              "name": "$__timeFilter",
              "params": [],
              "type": "macro"
            }
          ]
        },
        {
          "format": "time_series",
          "group": [],
          "hide": false,
          "metricColumn": "none",
          "rawQuery": true,
          "rawSql": "SELECT \ndate_ticket as time,\nSUM(temps_attente) as '8:00'\nFROM Statistique_delai_attente\nWHERE $__timeFilter(date_ticket)\nAND EXTRACT(HOUR FROM creation) = 8\nAND libelle_salle_attente IN ([[sallesAttente]])\nAND libelle_file_attente IN ([[filesAttente]])\nAND nom_secretaire IN ([[secretaire]])\ngroup BY numero_ticket, date_ticket",
          "refId": "C",
          "select": [
            [
              {
                "params": [
                  "idImprimante"
                ],
                "type": "column"
              }
            ]
          ],
          "table": "Imprimante",
          "timeColumn": "dateVerif",
          "timeColumnType": "timestamp",
          "where": [
            {
              "name": "$__timeFilter",
              "params": [],
              "type": "macro"
            }
          ]
        },
        {
          "format": "time_series",
          "group": [],
          "hide": false,
          "metricColumn": "none",
          "rawQuery": true,
          "rawSql": "SELECT \ndate_ticket as time,\nSUM(temps_attente) as '9:00'\nFROM Statistique_delai_attente\nWHERE $__timeFilter(date_ticket)\nAND EXTRACT(HOUR FROM creation) = 9\nAND libelle_salle_attente IN ([[sallesAttente]])\nAND libelle_file_attente IN ([[filesAttente]])\nAND nom_secretaire IN ([[secretaire]])\ngroup BY numero_ticket, date_ticket",
          "refId": "D",
          "select": [
            [
              {
                "params": [
                  "idImprimante"
                ],
                "type": "column"
              }
            ]
          ],
          "table": "Imprimante",
          "timeColumn": "dateVerif",
          "timeColumnType": "timestamp",
          "where": [
            {
              "name": "$__timeFilter",
              "params": [],
              "type": "macro"
            }
          ]
        },
        {
          "format": "time_series",
          "group": [],
          "hide": false,
          "metricColumn": "none",
          "rawQuery": true,
          "rawSql": "SELECT \ndate_ticket as time,\nSUM(temps_attente) as '10:00'\nFROM Statistique_delai_attente\nWHERE $__timeFilter(date_ticket)\nAND EXTRACT(HOUR FROM creation) = 10\nAND libelle_salle_attente IN ([[sallesAttente]])\nAND libelle_file_attente IN ([[filesAttente]])\nAND nom_secretaire IN ([[secretaire]])\ngroup BY numero_ticket, date_ticket",
          "refId": "E",
          "select": [
            [
              {
                "params": [
                  "idImprimante"
                ],
                "type": "column"
              }
            ]
          ],
          "table": "Imprimante",
          "timeColumn": "dateVerif",
          "timeColumnType": "timestamp",
          "where": [
            {
              "name": "$__timeFilter",
              "params": [],
              "type": "macro"
            }
          ]
        },
        {
          "format": "time_series",
          "group": [],
          "hide": false,
          "metricColumn": "none",
          "rawQuery": true,
          "rawSql": "SELECT \ndate_ticket as time,\nSUM(temps_attente) as '11:00'\nFROM Statistique_delai_attente\nWHERE $__timeFilter(date_ticket)\nAND EXTRACT(HOUR FROM creation) = 11\nAND libelle_salle_attente IN ([[sallesAttente]])\nAND libelle_file_attente IN ([[filesAttente]])\nAND nom_secretaire IN ([[secretaire]])\ngroup BY numero_ticket, date_ticket",
          "refId": "F",
          "select": [
            [
              {
                "params": [
                  "idImprimante"
                ],
                "type": "column"
              }
            ]
          ],
          "table": "Imprimante",
          "timeColumn": "dateVerif",
          "timeColumnType": "timestamp",
          "where": [
            {
              "name": "$__timeFilter",
              "params": [],
              "type": "macro"
            }
          ]
        },
        {
          "format": "time_series",
          "group": [],
          "hide": false,
          "metricColumn": "none",
          "rawQuery": true,
          "rawSql": "SELECT \ndate_ticket as time,\nSUM(temps_attente) as '12:00'\nFROM Statistique_delai_attente\nWHERE $__timeFilter(date_ticket)\nAND EXTRACT(HOUR FROM creation) = 12\nAND libelle_salle_attente IN ([[sallesAttente]])\nAND libelle_file_attente IN ([[filesAttente]])\nAND nom_secretaire IN ([[secretaire]])\ngroup BY numero_ticket, date_ticket",
          "refId": "G",
          "select": [
            [
              {
                "params": [
                  "idImprimante"
                ],
                "type": "column"
              }
            ]
          ],
          "table": "Imprimante",
          "timeColumn": "dateVerif",
          "timeColumnType": "timestamp",
          "where": [
            {
              "name": "$__timeFilter",
              "params": [],
              "type": "macro"
            }
          ]
        },
        {
          "format": "time_series",
          "group": [],
          "hide": false,
          "metricColumn": "none",
          "rawQuery": true,
          "rawSql": "SELECT \ndate_ticket as time,\nSUM(temps_attente) as '13:00'\nFROM Statistique_delai_attente\nWHERE $__timeFilter(date_ticket)\nAND EXTRACT(HOUR FROM creation) = 13\nAND libelle_salle_attente IN ([[sallesAttente]])\nAND libelle_file_attente IN ([[filesAttente]])\nAND nom_secretaire IN ([[secretaire]])\ngroup BY numero_ticket, date_ticket",
          "refId": "H",
          "select": [
            [
              {
                "params": [
                  "idImprimante"
                ],
                "type": "column"
              }
            ]
          ],
          "table": "Imprimante",
          "timeColumn": "dateVerif",
          "timeColumnType": "timestamp",
          "where": [
            {
              "name": "$__timeFilter",
              "params": [],
              "type": "macro"
            }
          ]
        },
        {
          "format": "time_series",
          "group": [],
          "hide": false,
          "metricColumn": "none",
          "rawQuery": true,
          "rawSql": "SELECT \ndate_ticket as time,\nSUM(temps_attente) as '14:00'\nFROM Statistique_delai_attente\nWHERE $__timeFilter(date_ticket)\nAND EXTRACT(HOUR FROM creation) = 14\nAND libelle_salle_attente IN ([[sallesAttente]])\nAND libelle_file_attente IN ([[filesAttente]])\nAND nom_secretaire IN ([[secretaire]])\ngroup BY numero_ticket, date_ticket",
          "refId": "I",
          "select": [
            [
              {
                "params": [
                  "idImprimante"
                ],
                "type": "column"
              }
            ]
          ],
          "table": "Imprimante",
          "timeColumn": "dateVerif",
          "timeColumnType": "timestamp",
          "where": [
            {
              "name": "$__timeFilter",
              "params": [],
              "type": "macro"
            }
          ]
        },
        {
          "format": "time_series",
          "group": [],
          "hide": false,
          "metricColumn": "none",
          "rawQuery": true,
          "rawSql": "SELECT \ndate_ticket as time,\nSUM(temps_attente) as '15:00'\nFROM Statistique_delai_attente\nWHERE $__timeFilter(date_ticket)\nAND EXTRACT(HOUR FROM creation) = 15\nAND libelle_salle_attente IN ([[sallesAttente]])\nAND libelle_file_attente IN ([[filesAttente]])\nAND nom_secretaire IN ([[secretaire]])\ngroup BY numero_ticket, date_ticket",
          "refId": "J",
          "select": [
            [
              {
                "params": [
                  "idImprimante"
                ],
                "type": "column"
              }
            ]
          ],
          "table": "Imprimante",
          "timeColumn": "dateVerif",
          "timeColumnType": "timestamp",
          "where": [
            {
              "name": "$__timeFilter",
              "params": [],
              "type": "macro"
            }
          ]
        },
        {
          "format": "time_series",
          "group": [],
          "hide": false,
          "metricColumn": "none",
          "rawQuery": true,
          "rawSql": "SELECT \ndate_ticket as time,\nSUM(temps_attente) as '16:00'\nFROM Statistique_delai_attente\nWHERE $__timeFilter(date_ticket)\nAND EXTRACT(HOUR FROM creation) = 16\nAND libelle_salle_attente IN ([[sallesAttente]])\nAND libelle_file_attente IN ([[filesAttente]])\nAND nom_secretaire IN ([[secretaire]])\ngroup BY numero_ticket, date_ticket",
          "refId": "K",
          "select": [
            [
              {
                "params": [
                  "idImprimante"
                ],
                "type": "column"
              }
            ]
          ],
          "table": "Imprimante",
          "timeColumn": "dateVerif",
          "timeColumnType": "timestamp",
          "where": [
            {
              "name": "$__timeFilter",
              "params": [],
              "type": "macro"
            }
          ]
        },
        {
          "format": "time_series",
          "group": [],
          "hide": false,
          "metricColumn": "none",
          "rawQuery": true,
          "rawSql": "SELECT \ndate_ticket as time,\nSUM(temps_attente) as '17:00'\nFROM Statistique_delai_attente\nWHERE $__timeFilter(date_ticket)\nAND EXTRACT(HOUR FROM creation) = 17\nAND libelle_salle_attente IN ([[sallesAttente]])\nAND libelle_file_attente IN ([[filesAttente]])\nAND nom_secretaire IN ([[secretaire]])\ngroup BY numero_ticket, date_ticket",
          "refId": "L",
          "select": [
            [
              {
                "params": [
                  "idImprimante"
                ],
                "type": "column"
              }
            ]
          ],
          "table": "Imprimante",
          "timeColumn": "dateVerif",
          "timeColumnType": "timestamp",
          "where": [
            {
              "name": "$__timeFilter",
              "params": [],
              "type": "macro"
            }
          ]
        },
        {
          "format": "time_series",
          "group": [],
          "hide": false,
          "metricColumn": "none",
          "rawQuery": true,
          "rawSql": "SELECT \ndate_ticket as time,\nSUM(temps_attente) as '18:00'\nFROM Statistique_delai_attente\nWHERE $__timeFilter(date_ticket)\nAND EXTRACT(HOUR FROM creation) = 18\nAND libelle_salle_attente IN ([[sallesAttente]])\nAND libelle_file_attente IN ([[filesAttente]])\nAND nom_secretaire IN ([[secretaire]])\ngroup BY numero_ticket, date_ticket",
          "refId": "M",
          "select": [
            [
              {
                "params": [
                  "idImprimante"
                ],
                "type": "column"
              }
            ]
          ],
          "table": "Imprimante",
          "timeColumn": "dateVerif",
          "timeColumnType": "timestamp",
          "where": [
            {
              "name": "$__timeFilter",
              "params": [],
              "type": "macro"
            }
          ]
        },
        {
          "format": "time_series",
          "group": [],
          "hide": false,
          "metricColumn": "none",
          "rawQuery": true,
          "rawSql": "SELECT \ndate_ticket as time,\nSUM(temps_attente) as '19:00'\nFROM Statistique_delai_attente\nWHERE $__timeFilter(date_ticket)\nAND EXTRACT(HOUR FROM creation) = 19\nAND libelle_salle_attente IN ([[sallesAttente]])\nAND libelle_file_attente IN ([[filesAttente]])\nAND nom_secretaire IN ([[secretaire]])\ngroup BY numero_ticket, date_ticket",
          "refId": "N",
          "select": [
            [
              {
                "params": [
                  "idImprimante"
                ],
                "type": "column"
              }
            ]
          ],
          "table": "Imprimante",
          "timeColumn": "dateVerif",
          "timeColumnType": "timestamp",
          "where": [
            {
              "name": "$__timeFilter",
              "params": [],
              "type": "macro"
            }
          ]
        },
        {
          "format": "time_series",
          "group": [],
          "hide": false,
          "metricColumn": "none",
          "rawQuery": true,
          "rawSql": "SELECT \ndate_ticket as time,\nSUM(temps_attente) as '20:00'\nFROM Statistique_delai_attente\nWHERE $__timeFilter(date_ticket)\nAND EXTRACT(HOUR FROM creation) = 20\nAND libelle_salle_attente IN ([[sallesAttente]])\nAND libelle_file_attente IN ([[filesAttente]])\nAND nom_secretaire IN ([[secretaire]])\ngroup BY numero_ticket, date_ticket",
          "refId": "O",
          "select": [
            [
              {
                "params": [
                  "idImprimante"
                ],
                "type": "column"
              }
            ]
          ],
          "table": "Imprimante",
          "timeColumn": "dateVerif",
          "timeColumnType": "timestamp",
          "where": [
            {
              "name": "$__timeFilter",
              "params": [],
              "type": "macro"
            }
          ]
        }
      ],
      "thresholds": [],
      "timeFrom": null,
      "timeRegions": [],
      "timeShift": null,
      "title": "Temps d'attente",
      "tooltip": {
        "shared": false,
        "sort": 0,
        "value_type": "individual"
      },
      "type": "graph",
      "xaxis": {
        "buckets": null,
        "mode": "series",
        "name": null,
        "show": true,
        "values": [
          "avg"
        ]
      },
      "yaxes": [
        {
          "decimals": 0,
          "format": "clocks",
          "label": null,
          "logBase": 1,
          "max": null,
          "min": "0",
          "show": true
        },
        {
          "decimals": 0,
          "format": "none",
          "label": null,
          "logBase": 1,
          "max": null,
          "min": null,
          "show": true
        }
      ],
      "yaxis": {
        "align": false,
        "alignLevel": null
      }
    },
    {
      "aliasColors": {},
      "bars": true,
      "dashLength": 10,
      "dashes": false,
      "datasource": "DFA",
      "decimals": null,
      "description": "Temps séparant l'appel d'un patient et l’acquittement de son ticket.",
      "fill": 1,
      "gridPos": {
        "h": 11,
        "w": 12,
        "x": 12,
        "y": 0
      },
      "id": 3,
      "legend": {
        "alignAsTable": true,
        "avg": true,
        "current": false,
        "max": false,
        "min": false,
        "rightSide": true,
        "show": true,
        "total": false,
        "values": true
      },
      "lines": false,
      "linewidth": 1,
      "links": [],
      "nullPointMode": "null",
      "paceLength": 10,
      "percentage": false,
      "pointradius": 5,
      "points": false,
      "renderer": "flot",
      "seriesOverrides": [
        {
          "alias": "A-series"
        }
      ],
      "spaceLength": 10,
      "stack": false,
      "steppedLine": false,
      "targets": [
        {
          "format": "time_series",
          "group": [],
          "hide": false,
          "metricColumn": "none",
          "rawQuery": true,
          "rawSql": "SELECT \ndate_ticket as time,\nSUM(temps_prise_en_charge) as '6:00'\nFROM Statistique_delai_attente\nWHERE $__timeFilter(date_ticket)\nAND EXTRACT(HOUR FROM creation) = 6\nAND libelle_salle_attente IN ([[sallesAttente]])\nAND libelle_file_attente IN ([[filesAttente]])\nAND nom_secretaire IN ([[secretaire]])\ngroup BY numero_ticket, date_ticket",
          "refId": "A",
          "select": [
            [
              {
                "params": [
                  "idImprimante"
                ],
                "type": "column"
              }
            ]
          ],
          "table": "Imprimante",
          "timeColumn": "dateVerif",
          "timeColumnType": "timestamp",
          "where": [
            {
              "name": "$__timeFilter",
              "params": [],
              "type": "macro"
            }
          ]
        },
        {
          "format": "time_series",
          "group": [],
          "hide": false,
          "metricColumn": "none",
          "rawQuery": true,
          "rawSql": "SELECT \ndate_ticket as time,\nSUM(temps_prise_en_charge) as '7:00'\nFROM Statistique_delai_attente\nWHERE $__timeFilter(date_ticket)\nAND EXTRACT(HOUR FROM creation) = 7\nAND libelle_salle_attente IN ([[sallesAttente]])\nAND libelle_file_attente IN ([[filesAttente]])\nAND nom_secretaire IN ([[secretaire]])\ngroup BY numero_ticket, date_ticket",
          "refId": "B",
          "select": [
            [
              {
                "params": [
                  "idImprimante"
                ],
                "type": "column"
              }
            ]
          ],
          "table": "Imprimante",
          "timeColumn": "dateVerif",
          "timeColumnType": "timestamp",
          "where": [
            {
              "name": "$__timeFilter",
              "params": [],
              "type": "macro"
            }
          ]
        },
        {
          "format": "time_series",
          "group": [],
          "hide": false,
          "metricColumn": "none",
          "rawQuery": true,
          "rawSql": "SELECT \ndate_ticket as time,\nSUM(temps_prise_en_charge) as '8:00'\nFROM Statistique_delai_attente\nWHERE $__timeFilter(date_ticket)\nAND EXTRACT(HOUR FROM creation) = 8\nAND libelle_salle_attente IN ([[sallesAttente]])\nAND libelle_file_attente IN ([[filesAttente]])\nAND nom_secretaire IN ([[secretaire]])\ngroup BY numero_ticket, date_ticket",
          "refId": "C",
          "select": [
            [
              {
                "params": [
                  "idImprimante"
                ],
                "type": "column"
              }
            ]
          ],
          "table": "Imprimante",
          "timeColumn": "dateVerif",
          "timeColumnType": "timestamp",
          "where": [
            {
              "name": "$__timeFilter",
              "params": [],
              "type": "macro"
            }
          ]
        },
        {
          "format": "time_series",
          "group": [],
          "hide": false,
          "metricColumn": "none",
          "rawQuery": true,
          "rawSql": "SELECT \ndate_ticket as time,\nSUM(temps_prise_en_charge) as '9:00'\nFROM Statistique_delai_attente\nWHERE $__timeFilter(date_ticket)\nAND EXTRACT(HOUR FROM creation) = 9\nAND libelle_salle_attente IN ([[sallesAttente]])\nAND libelle_file_attente IN ([[filesAttente]])\nAND nom_secretaire IN ([[secretaire]])\ngroup BY numero_ticket, date_ticket",
          "refId": "D",
          "select": [
            [
              {
                "params": [
                  "idImprimante"
                ],
                "type": "column"
              }
            ]
          ],
          "table": "Imprimante",
          "timeColumn": "dateVerif",
          "timeColumnType": "timestamp",
          "where": [
            {
              "name": "$__timeFilter",
              "params": [],
              "type": "macro"
            }
          ]
        },
        {
          "format": "time_series",
          "group": [],
          "hide": false,
          "metricColumn": "none",
          "rawQuery": true,
          "rawSql": "SELECT \ndate_ticket as time,\nSUM(temps_prise_en_charge) as '10:00'\nFROM Statistique_delai_attente\nWHERE $__timeFilter(date_ticket)\nAND EXTRACT(HOUR FROM creation) = 10\nAND libelle_salle_attente IN ([[sallesAttente]])\nAND libelle_file_attente IN ([[filesAttente]])\nAND nom_secretaire IN ([[secretaire]])\ngroup BY numero_ticket, date_ticket",
          "refId": "E",
          "select": [
            [
              {
                "params": [
                  "idImprimante"
                ],
                "type": "column"
              }
            ]
          ],
          "table": "Imprimante",
          "timeColumn": "dateVerif",
          "timeColumnType": "timestamp",
          "where": [
            {
              "name": "$__timeFilter",
              "params": [],
              "type": "macro"
            }
          ]
        },
        {
          "format": "time_series",
          "group": [],
          "hide": false,
          "metricColumn": "none",
          "rawQuery": true,
          "rawSql": "SELECT \ndate_ticket as time,\nSUM(temps_prise_en_charge) as '11:00'\nFROM Statistique_delai_attente\nWHERE $__timeFilter(date_ticket)\nAND EXTRACT(HOUR FROM creation) = 11\nAND libelle_salle_attente IN ([[sallesAttente]])\nAND libelle_file_attente IN ([[filesAttente]])\nAND nom_secretaire IN ([[secretaire]])\ngroup BY numero_ticket, date_ticket",
          "refId": "F",
          "select": [
            [
              {
                "params": [
                  "idImprimante"
                ],
                "type": "column"
              }
            ]
          ],
          "table": "Imprimante",
          "timeColumn": "dateVerif",
          "timeColumnType": "timestamp",
          "where": [
            {
              "name": "$__timeFilter",
              "params": [],
              "type": "macro"
            }
          ]
        },
        {
          "format": "time_series",
          "group": [],
          "hide": false,
          "metricColumn": "none",
          "rawQuery": true,
          "rawSql": "SELECT \ndate_ticket as time,\nSUM(temps_prise_en_charge) as '12:00'\nFROM Statistique_delai_attente\nWHERE $__timeFilter(date_ticket)\nAND EXTRACT(HOUR FROM creation) = 12\nAND libelle_salle_attente IN ([[sallesAttente]])\nAND libelle_file_attente IN ([[filesAttente]])\nAND nom_secretaire IN ([[secretaire]])\ngroup BY numero_ticket, date_ticket",
          "refId": "G",
          "select": [
            [
              {
                "params": [
                  "idImprimante"
                ],
                "type": "column"
              }
            ]
          ],
          "table": "Imprimante",
          "timeColumn": "dateVerif",
          "timeColumnType": "timestamp",
          "where": [
            {
              "name": "$__timeFilter",
              "params": [],
              "type": "macro"
            }
          ]
        },
        {
          "format": "time_series",
          "group": [],
          "hide": false,
          "metricColumn": "none",
          "rawQuery": true,
          "rawSql": "SELECT \ndate_ticket as time,\nSUM(temps_prise_en_charge) as '13:00'\nFROM Statistique_delai_attente\nWHERE $__timeFilter(date_ticket)\nAND EXTRACT(HOUR FROM creation) = 13\nAND libelle_salle_attente IN ([[sallesAttente]])\nAND libelle_file_attente IN ([[filesAttente]])\nAND nom_secretaire IN ([[secretaire]])\ngroup BY numero_ticket, date_ticket",
          "refId": "H",
          "select": [
            [
              {
                "params": [
                  "idImprimante"
                ],
                "type": "column"
              }
            ]
          ],
          "table": "Imprimante",
          "timeColumn": "dateVerif",
          "timeColumnType": "timestamp",
          "where": [
            {
              "name": "$__timeFilter",
              "params": [],
              "type": "macro"
            }
          ]
        },
        {
          "format": "time_series",
          "group": [],
          "hide": false,
          "metricColumn": "none",
          "rawQuery": true,
          "rawSql": "SELECT \ndate_ticket as time,\nSUM(temps_prise_en_charge) as '14:00'\nFROM Statistique_delai_attente\nWHERE $__timeFilter(date_ticket)\nAND EXTRACT(HOUR FROM creation) = 14\nAND libelle_salle_attente IN ([[sallesAttente]])\nAND libelle_file_attente IN ([[filesAttente]])\nAND nom_secretaire IN ([[secretaire]])\ngroup BY numero_ticket, date_ticket",
          "refId": "I",
          "select": [
            [
              {
                "params": [
                  "idImprimante"
                ],
                "type": "column"
              }
            ]
          ],
          "table": "Imprimante",
          "timeColumn": "dateVerif",
          "timeColumnType": "timestamp",
          "where": [
            {
              "name": "$__timeFilter",
              "params": [],
              "type": "macro"
            }
          ]
        },
        {
          "format": "time_series",
          "group": [],
          "hide": false,
          "metricColumn": "none",
          "rawQuery": true,
          "rawSql": "SELECT \ndate_ticket as time,\nSUM(temps_prise_en_charge) as '15:00'\nFROM Statistique_delai_attente\nWHERE $__timeFilter(date_ticket)\nAND EXTRACT(HOUR FROM creation) = 15\nAND libelle_salle_attente IN ([[sallesAttente]])\nAND libelle_file_attente IN ([[filesAttente]])\nAND nom_secretaire IN ([[secretaire]])\ngroup BY numero_ticket, date_ticket",
          "refId": "J",
          "select": [
            [
              {
                "params": [
                  "idImprimante"
                ],
                "type": "column"
              }
            ]
          ],
          "table": "Imprimante",
          "timeColumn": "dateVerif",
          "timeColumnType": "timestamp",
          "where": [
            {
              "name": "$__timeFilter",
              "params": [],
              "type": "macro"
            }
          ]
        },
        {
          "format": "time_series",
          "group": [],
          "hide": false,
          "metricColumn": "none",
          "rawQuery": true,
          "rawSql": "SELECT \ndate_ticket as time,\nSUM(temps_prise_en_charge) as '16:00'\nFROM Statistique_delai_attente\nWHERE $__timeFilter(date_ticket)\nAND EXTRACT(HOUR FROM creation) = 16\nAND libelle_salle_attente IN ([[sallesAttente]])\nAND libelle_file_attente IN ([[filesAttente]])\nAND nom_secretaire IN ([[secretaire]])\ngroup BY numero_ticket, date_ticket",
          "refId": "K",
          "select": [
            [
              {
                "params": [
                  "idImprimante"
                ],
                "type": "column"
              }
            ]
          ],
          "table": "Imprimante",
          "timeColumn": "dateVerif",
          "timeColumnType": "timestamp",
          "where": [
            {
              "name": "$__timeFilter",
              "params": [],
              "type": "macro"
            }
          ]
        },
        {
          "format": "time_series",
          "group": [],
          "hide": false,
          "metricColumn": "none",
          "rawQuery": true,
          "rawSql": "SELECT \ndate_ticket as time,\nSUM(temps_prise_en_charge) as '17:00'\nFROM Statistique_delai_attente\nWHERE $__timeFilter(date_ticket)\nAND EXTRACT(HOUR FROM creation) = 17\nAND libelle_salle_attente IN ([[sallesAttente]])\nAND libelle_file_attente IN ([[filesAttente]])\nAND nom_secretaire IN ([[secretaire]])\ngroup BY numero_ticket, date_ticket",
          "refId": "L",
          "select": [
            [
              {
                "params": [
                  "idImprimante"
                ],
                "type": "column"
              }
            ]
          ],
          "table": "Imprimante",
          "timeColumn": "dateVerif",
          "timeColumnType": "timestamp",
          "where": [
            {
              "name": "$__timeFilter",
              "params": [],
              "type": "macro"
            }
          ]
        },
        {
          "format": "time_series",
          "group": [],
          "hide": false,
          "metricColumn": "none",
          "rawQuery": true,
          "rawSql": "SELECT \ndate_ticket as time,\nSUM(temps_prise_en_charge) as '18:00'\nFROM Statistique_delai_attente\nWHERE $__timeFilter(date_ticket)\nAND EXTRACT(HOUR FROM creation) = 18\nAND libelle_salle_attente IN ([[sallesAttente]])\nAND libelle_file_attente IN ([[filesAttente]])\nAND nom_secretaire IN ([[secretaire]])\ngroup BY numero_ticket, date_ticket",
          "refId": "M",
          "select": [
            [
              {
                "params": [
                  "idImprimante"
                ],
                "type": "column"
              }
            ]
          ],
          "table": "Imprimante",
          "timeColumn": "dateVerif",
          "timeColumnType": "timestamp",
          "where": [
            {
              "name": "$__timeFilter",
              "params": [],
              "type": "macro"
            }
          ]
        },
        {
          "format": "time_series",
          "group": [],
          "hide": false,
          "metricColumn": "none",
          "rawQuery": true,
          "rawSql": "SELECT \ndate_ticket as time,\nSUM(temps_prise_en_charge) as '19:00'\nFROM Statistique_delai_attente\nWHERE $__timeFilter(date_ticket)\nAND EXTRACT(HOUR FROM creation) = 19\nAND libelle_salle_attente IN ([[sallesAttente]])\nAND libelle_file_attente IN ([[filesAttente]])\nAND nom_secretaire IN ([[secretaire]])\ngroup BY numero_ticket, date_ticket",
          "refId": "N",
          "select": [
            [
              {
                "params": [
                  "idImprimante"
                ],
                "type": "column"
              }
            ]
          ],
          "table": "Imprimante",
          "timeColumn": "dateVerif",
          "timeColumnType": "timestamp",
          "where": [
            {
              "name": "$__timeFilter",
              "params": [],
              "type": "macro"
            }
          ]
        },
        {
          "format": "time_series",
          "group": [],
          "hide": false,
          "metricColumn": "none",
          "rawQuery": true,
          "rawSql": "SELECT \ndate_ticket as time,\nSUM(temps_prise_en_charge) as '20:00'\nFROM Statistique_delai_attente\nWHERE $__timeFilter(date_ticket)\nAND EXTRACT(HOUR FROM creation) = 20\nAND libelle_salle_attente IN ([[sallesAttente]])\nAND libelle_file_attente IN ([[filesAttente]])\nAND nom_secretaire IN ([[secretaire]])\ngroup BY numero_ticket, date_ticket",
          "refId": "O",
          "select": [
            [
              {
                "params": [
                  "idImprimante"
                ],
                "type": "column"
              }
            ]
          ],
          "table": "Imprimante",
          "timeColumn": "dateVerif",
          "timeColumnType": "timestamp",
          "where": [
            {
              "name": "$__timeFilter",
              "params": [],
              "type": "macro"
            }
          ]
        }
      ],
      "thresholds": [],
      "timeFrom": null,
      "timeRegions": [],
      "timeShift": null,
      "title": "Temps de prise en charge",
      "tooltip": {
        "shared": false,
        "sort": 0,
        "value_type": "individual"
      },
      "type": "graph",
      "xaxis": {
        "buckets": null,
        "mode": "series",
        "name": null,
        "show": true,
        "values": [
          "avg"
        ]
      },
      "yaxes": [
        {
          "decimals": 0,
          "format": "clocks",
          "label": null,
          "logBase": 1,
          "max": null,
          "min": "0",
          "show": true
        },
        {
          "decimals": 0,
          "format": "none",
          "label": null,
          "logBase": 1,
          "max": null,
          "min": null,
          "show": true
        }
      ],
      "yaxis": {
        "align": false,
        "alignLevel": null
      }
    },
    {
      "aliasColors": {},
      "bars": true,
      "dashLength": 10,
      "dashes": false,
      "datasource": "DFA",
      "decimals": null,
      "description": "Temps séparant le début d'un entretien et sa clôture.",
      "fill": 1,
      "gridPos": {
        "h": 11,
        "w": 12,
        "x": 0,
        "y": 11
      },
      "id": 4,
      "legend": {
        "alignAsTable": true,
        "avg": true,
        "current": false,
        "max": false,
        "min": false,
        "rightSide": true,
        "show": true,
        "total": false,
        "values": true
      },
      "lines": false,
      "linewidth": 1,
      "links": [],
      "nullPointMode": "null",
      "paceLength": 10,
      "percentage": false,
      "pointradius": 5,
      "points": false,
      "renderer": "flot",
      "seriesOverrides": [
        {
          "alias": "A-series"
        }
      ],
      "spaceLength": 10,
      "stack": false,
      "steppedLine": false,
      "targets": [
        {
          "format": "time_series",
          "group": [],
          "hide": false,
          "metricColumn": "none",
          "rawQuery": true,
          "rawSql": "SELECT \ndate_ticket as time,\nSUM(temps_entretien) as '6:00'\nFROM Statistique_delai_attente\nWHERE $__timeFilter(date_ticket)\nAND EXTRACT(HOUR FROM creation) = 6\nAND libelle_salle_attente IN ([[sallesAttente]])\nAND libelle_file_attente IN ([[filesAttente]])\nAND nom_secretaire IN ([[secretaire]])\ngroup BY numero_ticket, date_ticket",
          "refId": "A",
          "select": [
            [
              {
                "params": [
                  "idImprimante"
                ],
                "type": "column"
              }
            ]
          ],
          "table": "Imprimante",
          "timeColumn": "dateVerif",
          "timeColumnType": "timestamp",
          "where": [
            {
              "name": "$__timeFilter",
              "params": [],
              "type": "macro"
            }
          ]
        },
        {
          "format": "time_series",
          "group": [],
          "hide": false,
          "metricColumn": "none",
          "rawQuery": true,
          "rawSql": "SELECT \ndate_ticket as time,\nSUM(temps_entretien) as '7:00'\nFROM Statistique_delai_attente\nWHERE $__timeFilter(date_ticket)\nAND EXTRACT(HOUR FROM creation) = 7\nAND libelle_salle_attente IN ([[sallesAttente]])\nAND libelle_file_attente IN ([[filesAttente]])\nAND nom_secretaire IN ([[secretaire]])\ngroup BY numero_ticket, date_ticket",
          "refId": "B",
          "select": [
            [
              {
                "params": [
                  "idImprimante"
                ],
                "type": "column"
              }
            ]
          ],
          "table": "Imprimante",
          "timeColumn": "dateVerif",
          "timeColumnType": "timestamp",
          "where": [
            {
              "name": "$__timeFilter",
              "params": [],
              "type": "macro"
            }
          ]
        },
        {
          "format": "time_series",
          "group": [],
          "hide": false,
          "metricColumn": "none",
          "rawQuery": true,
          "rawSql": "SELECT \ndate_ticket as time,\nSUM(temps_entretien) as '8:00'\nFROM Statistique_delai_attente\nWHERE $__timeFilter(date_ticket)\nAND EXTRACT(HOUR FROM creation) = 8\nAND libelle_salle_attente IN ([[sallesAttente]])\nAND libelle_file_attente IN ([[filesAttente]])\nAND nom_secretaire IN ([[secretaire]])\ngroup BY numero_ticket, date_ticket",
          "refId": "C",
          "select": [
            [
              {
                "params": [
                  "idImprimante"
                ],
                "type": "column"
              }
            ]
          ],
          "table": "Imprimante",
          "timeColumn": "dateVerif",
          "timeColumnType": "timestamp",
          "where": [
            {
              "name": "$__timeFilter",
              "params": [],
              "type": "macro"
            }
          ]
        },
        {
          "format": "time_series",
          "group": [],
          "hide": false,
          "metricColumn": "none",
          "rawQuery": true,
          "rawSql": "SELECT \ndate_ticket as time,\nSUM(temps_entretien) as '9:00'\nFROM Statistique_delai_attente\nWHERE $__timeFilter(date_ticket)\nAND EXTRACT(HOUR FROM creation) = 9\nAND libelle_salle_attente IN ([[sallesAttente]])\nAND libelle_file_attente IN ([[filesAttente]])\nAND nom_secretaire IN ([[secretaire]])\ngroup BY numero_ticket, date_ticket",
          "refId": "D",
          "select": [
            [
              {
                "params": [
                  "idImprimante"
                ],
                "type": "column"
              }
            ]
          ],
          "table": "Imprimante",
          "timeColumn": "dateVerif",
          "timeColumnType": "timestamp",
          "where": [
            {
              "name": "$__timeFilter",
              "params": [],
              "type": "macro"
            }
          ]
        },
        {
          "format": "time_series",
          "group": [],
          "hide": false,
          "metricColumn": "none",
          "rawQuery": true,
          "rawSql": "SELECT \ndate_ticket as time,\nSUM(temps_entretien) as '10:00'\nFROM Statistique_delai_attente\nWHERE $__timeFilter(date_ticket)\nAND EXTRACT(HOUR FROM creation) = 10\nAND libelle_salle_attente IN ([[sallesAttente]])\nAND libelle_file_attente IN ([[filesAttente]])\nAND nom_secretaire IN ([[secretaire]])\ngroup BY numero_ticket, date_ticket",
          "refId": "E",
          "select": [
            [
              {
                "params": [
                  "idImprimante"
                ],
                "type": "column"
              }
            ]
          ],
          "table": "Imprimante",
          "timeColumn": "dateVerif",
          "timeColumnType": "timestamp",
          "where": [
            {
              "name": "$__timeFilter",
              "params": [],
              "type": "macro"
            }
          ]
        },
        {
          "format": "time_series",
          "group": [],
          "hide": false,
          "metricColumn": "none",
          "rawQuery": true,
          "rawSql": "SELECT \ndate_ticket as time,\nSUM(temps_entretien) as '11:00'\nFROM Statistique_delai_attente\nWHERE $__timeFilter(date_ticket)\nAND EXTRACT(HOUR FROM creation) = 11\nAND libelle_salle_attente IN ([[sallesAttente]])\nAND libelle_file_attente IN ([[filesAttente]])\nAND nom_secretaire IN ([[secretaire]])\ngroup BY numero_ticket, date_ticket",
          "refId": "F",
          "select": [
            [
              {
                "params": [
                  "idImprimante"
                ],
                "type": "column"
              }
            ]
          ],
          "table": "Imprimante",
          "timeColumn": "dateVerif",
          "timeColumnType": "timestamp",
          "where": [
            {
              "name": "$__timeFilter",
              "params": [],
              "type": "macro"
            }
          ]
        },
        {
          "format": "time_series",
          "group": [],
          "hide": false,
          "metricColumn": "none",
          "rawQuery": true,
          "rawSql": "SELECT \ndate_ticket as time,\nSUM(temps_entretien) as '12:00'\nFROM Statistique_delai_attente\nWHERE $__timeFilter(date_ticket)\nAND EXTRACT(HOUR FROM creation) = 12\nAND libelle_salle_attente IN ([[sallesAttente]])\nAND libelle_file_attente IN ([[filesAttente]])\nAND nom_secretaire IN ([[secretaire]])\ngroup BY numero_ticket, date_ticket",
          "refId": "G",
          "select": [
            [
              {
                "params": [
                  "idImprimante"
                ],
                "type": "column"
              }
            ]
          ],
          "table": "Imprimante",
          "timeColumn": "dateVerif",
          "timeColumnType": "timestamp",
          "where": [
            {
              "name": "$__timeFilter",
              "params": [],
              "type": "macro"
            }
          ]
        },
        {
          "format": "time_series",
          "group": [],
          "hide": false,
          "metricColumn": "none",
          "rawQuery": true,
          "rawSql": "SELECT \ndate_ticket as time,\nSUM(temps_entretien) as '13:00'\nFROM Statistique_delai_attente\nWHERE $__timeFilter(date_ticket)\nAND EXTRACT(HOUR FROM creation) = 13\nAND libelle_salle_attente IN ([[sallesAttente]])\nAND libelle_file_attente IN ([[filesAttente]])\nAND nom_secretaire IN ([[secretaire]])\ngroup BY numero_ticket, date_ticket",
          "refId": "H",
          "select": [
            [
              {
                "params": [
                  "idImprimante"
                ],
                "type": "column"
              }
            ]
          ],
          "table": "Imprimante",
          "timeColumn": "dateVerif",
          "timeColumnType": "timestamp",
          "where": [
            {
              "name": "$__timeFilter",
              "params": [],
              "type": "macro"
            }
          ]
        },
        {
          "format": "time_series",
          "group": [],
          "hide": false,
          "metricColumn": "none",
          "rawQuery": true,
          "rawSql": "SELECT \ndate_ticket as time,\nSUM(temps_entretien) as '14:00'\nFROM Statistique_delai_attente\nWHERE $__timeFilter(date_ticket)\nAND EXTRACT(HOUR FROM creation) = 14\nAND libelle_salle_attente IN ([[sallesAttente]])\nAND libelle_file_attente IN ([[filesAttente]])\nAND nom_secretaire IN ([[secretaire]])\ngroup BY numero_ticket, date_ticket",
          "refId": "I",
          "select": [
            [
              {
                "params": [
                  "idImprimante"
                ],
                "type": "column"
              }
            ]
          ],
          "table": "Imprimante",
          "timeColumn": "dateVerif",
          "timeColumnType": "timestamp",
          "where": [
            {
              "name": "$__timeFilter",
              "params": [],
              "type": "macro"
            }
          ]
        },
        {
          "format": "time_series",
          "group": [],
          "hide": false,
          "metricColumn": "none",
          "rawQuery": true,
          "rawSql": "SELECT \ndate_ticket as time,\nSUM(temps_entretien) as '15:00'\nFROM Statistique_delai_attente\nWHERE $__timeFilter(date_ticket)\nAND EXTRACT(HOUR FROM creation) = 15\nAND libelle_salle_attente IN ([[sallesAttente]])\nAND libelle_file_attente IN ([[filesAttente]])\nAND nom_secretaire IN ([[secretaire]])\ngroup BY numero_ticket, date_ticket",
          "refId": "J",
          "select": [
            [
              {
                "params": [
                  "idImprimante"
                ],
                "type": "column"
              }
            ]
          ],
          "table": "Imprimante",
          "timeColumn": "dateVerif",
          "timeColumnType": "timestamp",
          "where": [
            {
              "name": "$__timeFilter",
              "params": [],
              "type": "macro"
            }
          ]
        },
        {
          "format": "time_series",
          "group": [],
          "hide": false,
          "metricColumn": "none",
          "rawQuery": true,
          "rawSql": "SELECT \ndate_ticket as time,\nSUM(temps_entretien) as '16:00'\nFROM Statistique_delai_attente\nWHERE $__timeFilter(date_ticket)\nAND EXTRACT(HOUR FROM creation) = 16\nAND libelle_salle_attente IN ([[sallesAttente]])\nAND libelle_file_attente IN ([[filesAttente]])\nAND nom_secretaire IN ([[secretaire]])\ngroup BY numero_ticket, date_ticket",
          "refId": "K",
          "select": [
            [
              {
                "params": [
                  "idImprimante"
                ],
                "type": "column"
              }
            ]
          ],
          "table": "Imprimante",
          "timeColumn": "dateVerif",
          "timeColumnType": "timestamp",
          "where": [
            {
              "name": "$__timeFilter",
              "params": [],
              "type": "macro"
            }
          ]
        },
        {
          "format": "time_series",
          "group": [],
          "hide": false,
          "metricColumn": "none",
          "rawQuery": true,
          "rawSql": "SELECT \ndate_ticket as time,\nSUM(temps_entretien) as '17:00'\nFROM Statistique_delai_attente\nWHERE $__timeFilter(date_ticket)\nAND EXTRACT(HOUR FROM creation) = 17\nAND libelle_salle_attente IN ([[sallesAttente]])\nAND libelle_file_attente IN ([[filesAttente]])\nAND nom_secretaire IN ([[secretaire]])\ngroup BY numero_ticket, date_ticket",
          "refId": "L",
          "select": [
            [
              {
                "params": [
                  "idImprimante"
                ],
                "type": "column"
              }
            ]
          ],
          "table": "Imprimante",
          "timeColumn": "dateVerif",
          "timeColumnType": "timestamp",
          "where": [
            {
              "name": "$__timeFilter",
              "params": [],
              "type": "macro"
            }
          ]
        },
        {
          "format": "time_series",
          "group": [],
          "hide": false,
          "metricColumn": "none",
          "rawQuery": true,
          "rawSql": "SELECT \ndate_ticket as time,\nSUM(temps_entretien) as '18:00'\nFROM Statistique_delai_attente\nWHERE $__timeFilter(date_ticket)\nAND EXTRACT(HOUR FROM creation) = 18\nAND libelle_salle_attente IN ([[sallesAttente]])\nAND libelle_file_attente IN ([[filesAttente]])\nAND nom_secretaire IN ([[secretaire]])\ngroup BY numero_ticket, date_ticket",
          "refId": "M",
          "select": [
            [
              {
                "params": [
                  "idImprimante"
                ],
                "type": "column"
              }
            ]
          ],
          "table": "Imprimante",
          "timeColumn": "dateVerif",
          "timeColumnType": "timestamp",
          "where": [
            {
              "name": "$__timeFilter",
              "params": [],
              "type": "macro"
            }
          ]
        },
        {
          "format": "time_series",
          "group": [],
          "hide": false,
          "metricColumn": "none",
          "rawQuery": true,
          "rawSql": "SELECT \ndate_ticket as time,\nSUM(temps_entretien) as '19:00'\nFROM Statistique_delai_attente\nWHERE $__timeFilter(date_ticket)\nAND EXTRACT(HOUR FROM creation) = 19\nAND libelle_salle_attente IN ([[sallesAttente]])\nAND libelle_file_attente IN ([[filesAttente]])\nAND nom_secretaire IN ([[secretaire]])\ngroup BY numero_ticket, date_ticket",
          "refId": "N",
          "select": [
            [
              {
                "params": [
                  "idImprimante"
                ],
                "type": "column"
              }
            ]
          ],
          "table": "Imprimante",
          "timeColumn": "dateVerif",
          "timeColumnType": "timestamp",
          "where": [
            {
              "name": "$__timeFilter",
              "params": [],
              "type": "macro"
            }
          ]
        },
        {
          "format": "time_series",
          "group": [],
          "hide": false,
          "metricColumn": "none",
          "rawQuery": true,
          "rawSql": "SELECT \ndate_ticket as time,\nSUM(temps_entretien) as '20:00'\nFROM Statistique_delai_attente\nWHERE $__timeFilter(date_ticket)\nAND EXTRACT(HOUR FROM creation) = 20\nAND libelle_salle_attente IN ([[sallesAttente]])\nAND libelle_file_attente IN ([[filesAttente]])\nAND nom_secretaire IN ([[secretaire]])\ngroup BY numero_ticket, date_ticket",
          "refId": "O",
          "select": [
            [
              {
                "params": [
                  "idImprimante"
                ],
                "type": "column"
              }
            ]
          ],
          "table": "Imprimante",
          "timeColumn": "dateVerif",
          "timeColumnType": "timestamp",
          "where": [
            {
              "name": "$__timeFilter",
              "params": [],
              "type": "macro"
            }
          ]
        }
      ],
      "thresholds": [],
      "timeFrom": null,
      "timeRegions": [],
      "timeShift": null,
      "title": "Temps d'entretien",
      "tooltip": {
        "shared": false,
        "sort": 0,
        "value_type": "individual"
      },
      "type": "graph",
      "xaxis": {
        "buckets": null,
        "mode": "series",
        "name": null,
        "show": true,
        "values": [
          "avg"
        ]
      },
      "yaxes": [
        {
          "decimals": 0,
          "format": "clocks",
          "label": null,
          "logBase": 1,
          "max": null,
          "min": "0",
          "show": true
        },
        {
          "decimals": 0,
          "format": "none",
          "label": null,
          "logBase": 1,
          "max": null,
          "min": null,
          "show": true
        }
      ],
      "yaxis": {
        "align": false,
        "alignLevel": null
      }
    },
    {
      "aliasColors": {},
      "bars": true,
      "dashLength": 10,
      "dashes": false,
      "datasource": "DFA",
      "decimals": null,
      "description": "Temps séparant l'impression d'un ticket et l’acquittement de celui-ci.",
      "fill": 1,
      "gridPos": {
        "h": 11,
        "w": 12,
        "x": 12,
        "y": 11
      },
      "id": 5,
      "legend": {
        "alignAsTable": true,
        "avg": true,
        "current": false,
        "max": false,
        "min": false,
        "rightSide": true,
        "show": true,
        "total": false,
        "values": true
      },
      "lines": false,
      "linewidth": 1,
      "links": [],
      "nullPointMode": "null",
      "paceLength": 10,
      "percentage": false,
      "pointradius": 5,
      "points": false,
      "renderer": "flot",
      "seriesOverrides": [
        {
          "alias": "A-series"
        }
      ],
      "spaceLength": 10,
      "stack": false,
      "steppedLine": false,
      "targets": [
        {
          "format": "time_series",
          "group": [],
          "hide": false,
          "metricColumn": "none",
          "rawQuery": true,
          "rawSql": "SELECT \ndate_ticket as time,\nSUM(temps_traitement) as '6:00'\nFROM Statistique_delai_attente\nWHERE $__timeFilter(date_ticket)\nAND EXTRACT(HOUR FROM creation) = 6\nAND libelle_salle_attente IN ([[sallesAttente]])\nAND libelle_file_attente IN ([[filesAttente]])\nAND nom_secretaire IN ([[secretaire]])\ngroup BY numero_ticket, date_ticket",
          "refId": "A",
          "select": [
            [
              {
                "params": [
                  "idImprimante"
                ],
                "type": "column"
              }
            ]
          ],
          "table": "Imprimante",
          "timeColumn": "dateVerif",
          "timeColumnType": "timestamp",
          "where": [
            {
              "name": "$__timeFilter",
              "params": [],
              "type": "macro"
            }
          ]
        },
        {
          "format": "time_series",
          "group": [],
          "hide": false,
          "metricColumn": "none",
          "rawQuery": true,
          "rawSql": "SELECT \ndate_ticket as time,\nSUM(temps_traitement) as '7:00'\nFROM Statistique_delai_attente\nWHERE $__timeFilter(date_ticket)\nAND EXTRACT(HOUR FROM creation) = 7\nAND libelle_salle_attente IN ([[sallesAttente]])\nAND libelle_file_attente IN ([[filesAttente]])\nAND nom_secretaire IN ([[secretaire]])\ngroup BY numero_ticket, date_ticket",
          "refId": "B",
          "select": [
            [
              {
                "params": [
                  "idImprimante"
                ],
                "type": "column"
              }
            ]
          ],
          "table": "Imprimante",
          "timeColumn": "dateVerif",
          "timeColumnType": "timestamp",
          "where": [
            {
              "name": "$__timeFilter",
              "params": [],
              "type": "macro"
            }
          ]
        },
        {
          "format": "time_series",
          "group": [],
          "hide": false,
          "metricColumn": "none",
          "rawQuery": true,
          "rawSql": "SELECT \ndate_ticket as time,\nSUM(temps_traitement) as '8:00'\nFROM Statistique_delai_attente\nWHERE $__timeFilter(date_ticket)\nAND EXTRACT(HOUR FROM creation) = 8\nAND libelle_salle_attente IN ([[sallesAttente]])\nAND libelle_file_attente IN ([[filesAttente]])\nAND nom_secretaire IN ([[secretaire]])\ngroup BY numero_ticket, date_ticket",
          "refId": "C",
          "select": [
            [
              {
                "params": [
                  "idImprimante"
                ],
                "type": "column"
              }
            ]
          ],
          "table": "Imprimante",
          "timeColumn": "dateVerif",
          "timeColumnType": "timestamp",
          "where": [
            {
              "name": "$__timeFilter",
              "params": [],
              "type": "macro"
            }
          ]
        },
        {
          "format": "time_series",
          "group": [],
          "hide": false,
          "metricColumn": "none",
          "rawQuery": true,
          "rawSql": "SELECT \ndate_ticket as time,\nSUM(temps_traitement) as '9:00'\nFROM Statistique_delai_attente\nWHERE $__timeFilter(date_ticket)\nAND EXTRACT(HOUR FROM creation) = 9\nAND libelle_salle_attente IN ([[sallesAttente]])\nAND libelle_file_attente IN ([[filesAttente]])\nAND nom_secretaire IN ([[secretaire]])\ngroup BY numero_ticket, date_ticket",
          "refId": "D",
          "select": [
            [
              {
                "params": [
                  "idImprimante"
                ],
                "type": "column"
              }
            ]
          ],
          "table": "Imprimante",
          "timeColumn": "dateVerif",
          "timeColumnType": "timestamp",
          "where": [
            {
              "name": "$__timeFilter",
              "params": [],
              "type": "macro"
            }
          ]
        },
        {
          "format": "time_series",
          "group": [],
          "hide": false,
          "metricColumn": "none",
          "rawQuery": true,
          "rawSql": "SELECT \ndate_ticket as time,\nSUM(temps_traitement) as '10:00'\nFROM Statistique_delai_attente\nWHERE $__timeFilter(date_ticket)\nAND EXTRACT(HOUR FROM creation) = 10\nAND libelle_salle_attente IN ([[sallesAttente]])\nAND libelle_file_attente IN ([[filesAttente]])\nAND nom_secretaire IN ([[secretaire]])\ngroup BY numero_ticket, date_ticket",
          "refId": "E",
          "select": [
            [
              {
                "params": [
                  "idImprimante"
                ],
                "type": "column"
              }
            ]
          ],
          "table": "Imprimante",
          "timeColumn": "dateVerif",
          "timeColumnType": "timestamp",
          "where": [
            {
              "name": "$__timeFilter",
              "params": [],
              "type": "macro"
            }
          ]
        },
        {
          "format": "time_series",
          "group": [],
          "hide": false,
          "metricColumn": "none",
          "rawQuery": true,
          "rawSql": "SELECT \ndate_ticket as time,\nSUM(temps_traitement) as '11:00'\nFROM Statistique_delai_attente\nWHERE $__timeFilter(date_ticket)\nAND EXTRACT(HOUR FROM creation) = 11\nAND libelle_salle_attente IN ([[sallesAttente]])\nAND libelle_file_attente IN ([[filesAttente]])\nAND nom_secretaire IN ([[secretaire]])\ngroup BY numero_ticket, date_ticket",
          "refId": "F",
          "select": [
            [
              {
                "params": [
                  "idImprimante"
                ],
                "type": "column"
              }
            ]
          ],
          "table": "Imprimante",
          "timeColumn": "dateVerif",
          "timeColumnType": "timestamp",
          "where": [
            {
              "name": "$__timeFilter",
              "params": [],
              "type": "macro"
            }
          ]
        },
        {
          "format": "time_series",
          "group": [],
          "hide": false,
          "metricColumn": "none",
          "rawQuery": true,
          "rawSql": "SELECT \ndate_ticket as time,\nSUM(temps_traitement) as '12:00'\nFROM Statistique_delai_attente\nWHERE $__timeFilter(date_ticket)\nAND EXTRACT(HOUR FROM creation) = 12\nAND libelle_salle_attente IN ([[sallesAttente]])\nAND libelle_file_attente IN ([[filesAttente]])\nAND nom_secretaire IN ([[secretaire]])\ngroup BY numero_ticket, date_ticket",
          "refId": "G",
          "select": [
            [
              {
                "params": [
                  "idImprimante"
                ],
                "type": "column"
              }
            ]
          ],
          "table": "Imprimante",
          "timeColumn": "dateVerif",
          "timeColumnType": "timestamp",
          "where": [
            {
              "name": "$__timeFilter",
              "params": [],
              "type": "macro"
            }
          ]
        },
        {
          "format": "time_series",
          "group": [],
          "hide": false,
          "metricColumn": "none",
          "rawQuery": true,
          "rawSql": "SELECT \ndate_ticket as time,\nSUM(temps_traitement) as '13:00'\nFROM Statistique_delai_attente\nWHERE $__timeFilter(date_ticket)\nAND EXTRACT(HOUR FROM creation) = 13\nAND libelle_salle_attente IN ([[sallesAttente]])\nAND libelle_file_attente IN ([[filesAttente]])\nAND nom_secretaire IN ([[secretaire]])\ngroup BY numero_ticket, date_ticket",
          "refId": "H",
          "select": [
            [
              {
                "params": [
                  "idImprimante"
                ],
                "type": "column"
              }
            ]
          ],
          "table": "Imprimante",
          "timeColumn": "dateVerif",
          "timeColumnType": "timestamp",
          "where": [
            {
              "name": "$__timeFilter",
              "params": [],
              "type": "macro"
            }
          ]
        },
        {
          "format": "time_series",
          "group": [],
          "hide": false,
          "metricColumn": "none",
          "rawQuery": true,
          "rawSql": "SELECT \ndate_ticket as time,\nSUM(temps_traitement) as '14:00'\nFROM Statistique_delai_attente\nWHERE $__timeFilter(date_ticket)\nAND EXTRACT(HOUR FROM creation) = 14\nAND libelle_salle_attente IN ([[sallesAttente]])\nAND libelle_file_attente IN ([[filesAttente]])\nAND nom_secretaire IN ([[secretaire]])\ngroup BY numero_ticket, date_ticket",
          "refId": "I",
          "select": [
            [
              {
                "params": [
                  "idImprimante"
                ],
                "type": "column"
              }
            ]
          ],
          "table": "Imprimante",
          "timeColumn": "dateVerif",
          "timeColumnType": "timestamp",
          "where": [
            {
              "name": "$__timeFilter",
              "params": [],
              "type": "macro"
            }
          ]
        },
        {
          "format": "time_series",
          "group": [],
          "hide": false,
          "metricColumn": "none",
          "rawQuery": true,
          "rawSql": "SELECT \ndate_ticket as time,\nSUM(temps_traitement) as '15:00'\nFROM Statistique_delai_attente\nWHERE $__timeFilter(date_ticket)\nAND EXTRACT(HOUR FROM creation) = 15\nAND libelle_salle_attente IN ([[sallesAttente]])\nAND libelle_file_attente IN ([[filesAttente]])\nAND nom_secretaire IN ([[secretaire]])\ngroup BY numero_ticket, date_ticket",
          "refId": "J",
          "select": [
            [
              {
                "params": [
                  "idImprimante"
                ],
                "type": "column"
              }
            ]
          ],
          "table": "Imprimante",
          "timeColumn": "dateVerif",
          "timeColumnType": "timestamp",
          "where": [
            {
              "name": "$__timeFilter",
              "params": [],
              "type": "macro"
            }
          ]
        },
        {
          "format": "time_series",
          "group": [],
          "hide": false,
          "metricColumn": "none",
          "rawQuery": true,
          "rawSql": "SELECT \ndate_ticket as time,\nSUM(temps_traitement) as '16:00'\nFROM Statistique_delai_attente\nWHERE $__timeFilter(date_ticket)\nAND EXTRACT(HOUR FROM creation) = 16\nAND libelle_salle_attente IN ([[sallesAttente]])\nAND libelle_file_attente IN ([[filesAttente]])\nAND nom_secretaire IN ([[secretaire]])\ngroup BY numero_ticket, date_ticket",
          "refId": "K",
          "select": [
            [
              {
                "params": [
                  "idImprimante"
                ],
                "type": "column"
              }
            ]
          ],
          "table": "Imprimante",
          "timeColumn": "dateVerif",
          "timeColumnType": "timestamp",
          "where": [
            {
              "name": "$__timeFilter",
              "params": [],
              "type": "macro"
            }
          ]
        },
        {
          "format": "time_series",
          "group": [],
          "hide": false,
          "metricColumn": "none",
          "rawQuery": true,
          "rawSql": "SELECT \ndate_ticket as time,\nSUM(temps_traitement) as '17:00'\nFROM Statistique_delai_attente\nWHERE $__timeFilter(date_ticket)\nAND EXTRACT(HOUR FROM creation) = 17\nAND libelle_salle_attente IN ([[sallesAttente]])\nAND libelle_file_attente IN ([[filesAttente]])\nAND nom_secretaire IN ([[secretaire]])\ngroup BY numero_ticket, date_ticket",
          "refId": "L",
          "select": [
            [
              {
                "params": [
                  "idImprimante"
                ],
                "type": "column"
              }
            ]
          ],
          "table": "Imprimante",
          "timeColumn": "dateVerif",
          "timeColumnType": "timestamp",
          "where": [
            {
              "name": "$__timeFilter",
              "params": [],
              "type": "macro"
            }
          ]
        },
        {
          "format": "time_series",
          "group": [],
          "hide": false,
          "metricColumn": "none",
          "rawQuery": true,
          "rawSql": "SELECT \ndate_ticket as time,\nSUM(temps_traitement) as '18:00'\nFROM Statistique_delai_attente\nWHERE $__timeFilter(date_ticket)\nAND EXTRACT(HOUR FROM creation) = 18\nAND libelle_salle_attente IN ([[sallesAttente]])\nAND libelle_file_attente IN ([[filesAttente]])\nAND nom_secretaire IN ([[secretaire]])\ngroup BY numero_ticket, date_ticket",
          "refId": "M",
          "select": [
            [
              {
                "params": [
                  "idImprimante"
                ],
                "type": "column"
              }
            ]
          ],
          "table": "Imprimante",
          "timeColumn": "dateVerif",
          "timeColumnType": "timestamp",
          "where": [
            {
              "name": "$__timeFilter",
              "params": [],
              "type": "macro"
            }
          ]
        },
        {
          "format": "time_series",
          "group": [],
          "hide": false,
          "metricColumn": "none",
          "rawQuery": true,
          "rawSql": "SELECT \ndate_ticket as time,\nSUM(temps_traitement) as '19:00'\nFROM Statistique_delai_attente\nWHERE $__timeFilter(date_ticket)\nAND EXTRACT(HOUR FROM creation) = 19\nAND libelle_salle_attente IN ([[sallesAttente]])\nAND libelle_file_attente IN ([[filesAttente]])\nAND nom_secretaire IN ([[secretaire]])\ngroup BY numero_ticket, date_ticket",
          "refId": "N",
          "select": [
            [
              {
                "params": [
                  "idImprimante"
                ],
                "type": "column"
              }
            ]
          ],
          "table": "Imprimante",
          "timeColumn": "dateVerif",
          "timeColumnType": "timestamp",
          "where": [
            {
              "name": "$__timeFilter",
              "params": [],
              "type": "macro"
            }
          ]
        },
        {
          "format": "time_series",
          "group": [],
          "hide": false,
          "metricColumn": "none",
          "rawQuery": true,
          "rawSql": "SELECT \ndate_ticket as time,\nSUM(temps_traitement) as '20:00'\nFROM Statistique_delai_attente\nWHERE $__timeFilter(date_ticket)\nAND EXTRACT(HOUR FROM creation) = 20\nAND libelle_salle_attente IN ([[sallesAttente]])\nAND libelle_file_attente IN ([[filesAttente]])\nAND nom_secretaire IN ([[secretaire]])\ngroup BY numero_ticket, date_ticket",
          "refId": "O",
          "select": [
            [
              {
                "params": [
                  "idImprimante"
                ],
                "type": "column"
              }
            ]
          ],
          "table": "Imprimante",
          "timeColumn": "dateVerif",
          "timeColumnType": "timestamp",
          "where": [
            {
              "name": "$__timeFilter",
              "params": [],
              "type": "macro"
            }
          ]
        }
      ],
      "thresholds": [],
      "timeFrom": null,
      "timeRegions": [],
      "timeShift": null,
      "title": "Temps de traitement",
      "tooltip": {
        "shared": false,
        "sort": 0,
        "value_type": "individual"
      },
      "type": "graph",
      "xaxis": {
        "buckets": null,
        "mode": "series",
        "name": null,
        "show": true,
        "values": [
          "avg"
        ]
      },
      "yaxes": [
        {
          "decimals": 0,
          "format": "clocks",
          "label": null,
          "logBase": 1,
          "max": null,
          "min": "0",
          "show": true
        },
        {
          "decimals": 0,
          "format": "none",
          "label": null,
          "logBase": 1,
          "max": null,
          "min": null,
          "show": true
        }
      ],
      "yaxis": {
        "align": false,
        "alignLevel": null
      }
    }
  ],
  "refresh": false,
  "schemaVersion": 16,
  "style": "dark",
  "tags": [],
  "templating": {
    "list": [
      {
        "allValue": "",
        "current": {
          "text": "All",
          "value": "$__all"
        },
        "datasource": "DFA",
        "definition": "SELECT Nom_salle_attente FROM Salles_attente",
        "hide": 0,
        "includeAll": true,
        "label": "Salle d'attente",
        "multi": false,
        "name": "sallesAttente",
        "options": [],
        "query": "SELECT Nom_salle_attente FROM Salles_attente",
        "refresh": 1,
        "regex": "",
        "skipUrlSync": false,
        "sort": 0,
        "tagValuesQuery": "",
        "tags": [],
        "tagsQuery": "",
        "type": "query",
        "useTags": false
      },
      {
        "allValue": "",
        "current": {
          "text": "All",
          "value": "$__all"
        },
        "datasource": "DFA",
        "definition": "SELECT lf.libelle_FA FROM Libelle_FA lf          LEFT JOIN Files_attente fa ON (lf.idFile_attente = fa.idFile_attente)          LEFT JOIN Salles_attente sa ON (fa.id_salle_attente = sa.idSalle_attente) WHERE lf.idLangue = 1 AND sa.Nom_salle_attente IN ([[sallesAttente]])",
        "hide": 0,
        "includeAll": true,
        "label": "File d'attente",
        "multi": false,
        "name": "filesAttente",
        "options": [],
        "query": "SELECT lf.libelle_FA FROM Libelle_FA lf          LEFT JOIN Files_attente fa ON (lf.idFile_attente = fa.idFile_attente)          LEFT JOIN Salles_attente sa ON (fa.id_salle_attente = sa.idSalle_attente) WHERE lf.idLangue = 1 AND sa.Nom_salle_attente IN ([[sallesAttente]])",
        "refresh": 1,
        "regex": "",
        "skipUrlSync": false,
        "sort": 0,
        "tagValuesQuery": "",
        "tags": [],
        "tagsQuery": "",
        "type": "query",
        "useTags": false
      },
      {
        "allValue": null,
        "current": {
          "text": "All",
          "value": "$__all"
        },
        "datasource": "DFA",
        "definition": "SELECT CONCAT(UCASE(Nom),\" \",Prenom) as nom_secretaire FROM Utilisateurs",
        "hide": 0,
        "includeAll": true,
        "label": "Secrétaire",
        "multi": false,
        "name": "secretaire",
        "options": [],
        "query": "SELECT CONCAT(UCASE(Nom),\" \",Prenom) as nom_secretaire FROM Utilisateurs",
        "refresh": 1,
        "regex": "",
        "skipUrlSync": false,
        "sort": 0,
        "tagValuesQuery": "",
        "tags": [],
        "tagsQuery": "",
        "type": "query",
        "useTags": false
      }
    ]
  },
  "time": {
    "from": "now-30d",
    "to": "now"
  },
  "timepicker": {
    "refresh_intervals": [
      "5s",
      "10s",
      "30s",
      "1m",
      "5m",
      "15m",
      "30m",
      "1h",
      "2h",
      "1d"
    ],
    "time_options": [
      "5m",
      "15m",
      "1h",
      "6h",
      "12h",
      "24h",
      "2d",
      "7d",
      "30d"
    ]
  },
  "timezone": "",
  "title": "DFA - Statistiques temps d'attente par Heure",
  "uid": "TMgtB6oGz",
  "version": 5
}
