{
  "annotations": {
    "list": [
      {
        "builtIn": 1,
        "datasource": "DFA",
        "enable": false,
        "hide": true,
        "iconColor": "rgba(0, 211, 255, 1)",
        "name": "Annotations & Alerts",
        "type": "dashboard"
      }
    ]
  },
  "editable": true,
  "gnetId": null,
  "graphTooltip": 0,
  "id": 39,
  "links": [],
  "panels": [
    {
      "columns": [],
      "datasource": "DFA",
      "fontSize": "100%",
      "gridPos": {
        "h": 28,
        "w": 10,
        "x": 0,
        "y": 0
      },
      "id": 7,
      "links": [],
      "pageSize": null,
      "scroll": true,
      "showHeader": true,
      "sort": {
        "col": 0,
        "desc": true
      },
      "styles": [
        {
          "alias": "Time",
          "dateFormat": "YYYY-MM-DD",
          "pattern": "Time",
          "type": "date"
        },
        {
          "alias": "",
          "colorMode": null,
          "colors": [
            "rgba(245, 54, 54, 0.9)",
            "rgba(237, 129, 40, 0.89)",
            "rgba(50, 172, 45, 0.97)"
          ],
          "dateFormat": "DD/MM/YYYY",
          "decimals": 2,
          "mappingType": 1,
          "pattern": "Date",
          "thresholds": [],
          "type": "date",
          "unit": "short"
        },
        {
          "alias": "",
          "colorMode": null,
          "colors": [
            "rgba(245, 54, 54, 0.9)",
            "rgba(237, 129, 40, 0.89)",
            "rgba(50, 172, 45, 0.97)"
          ],
          "dateFormat": "YYYY-MM-DD HH:mm:ss",
          "decimals": 2,
          "mappingType": 1,
          "pattern": "Temps moyen de traitement",
          "thresholds": [],
          "type": "number",
          "unit": "clocks"
        },
        {
          "alias": "",
          "colorMode": null,
          "colors": [
            "rgba(245, 54, 54, 0.9)",
            "rgba(237, 129, 40, 0.89)",
            "rgba(50, 172, 45, 0.97)"
          ],
          "dateFormat": "YYYY-MM-DD HH:mm:ss",
          "decimals": 2,
          "mappingType": 1,
          "pattern": "Nombre de tickets traités",
          "thresholds": [],
          "type": "string",
          "unit": "short"
        },
        {
          "alias": "",
          "colorMode": null,
          "colors": [
            "rgba(245, 54, 54, 0.9)",
            "rgba(237, 129, 40, 0.89)",
            "rgba(50, 172, 45, 0.97)"
          ],
          "decimals": 2,
          "pattern": "/.*/",
          "thresholds": [],
          "type": "number",
          "unit": "short"
        }
      ],
      "targets": [
        {
          "format": "table",
          "group": [],
          "metricColumn": "none",
          "rawQuery": true,
          "rawSql": "select s.date \"Date\",\n       concat(u.Nom, ' ', u.Prenom) \"Secrétaire\",\n       count(s.idTicket) \"Nombre de tickets traités\",\n       FLOOR(SUM(s.diff) / count(s.idTicket)) \"Temps moyen de traitement\"\nfrom (\n         select l.idTicket,\n                r.idUtilisateur,\n                date(l.Date_evenement) `date`,\n                TIMESTAMPDIFF(SECOND, l.Date_evenement, r.Date_evenement) diff\n         from Ticket_historique l\n                  inner join Ticket_historique r on\n             (l.idTicket = r.idTicket and r.idStatut_ticket = 8)\n         where l.idStatut_ticket = 3\n           and l.Date_evenement BETWEEN $__timeFrom() AND $__timeTo()\n           -- and date(l.Date_evenement) >= '2019-01-01'\n     ) s\ninner join Utilisateurs u on u.idUtilisateur = s.idUtilisateur\ngroup by s.date,\n         u.idUtilisateur\norder by 1\n;",
          "refId": "A",
          "select": [
            [
              {
                "params": [
                  "value"
                ],
                "type": "column"
              }
            ]
          ],
          "timeColumn": "time",
          "where": [
            {
              "name": "$__timeFilter",
              "params": [],
              "type": "macro"
            }
          ]
        }
      ],
      "title": "Nombre de tickets et temps moyen de traitement",
      "transform": "table",
      "type": "table"
    },
    {
      "aliasColors": {},
      "bars": true,
      "dashLength": 10,
      "dashes": false,
      "datasource": "DFA",
      "decimals": 0,
      "fill": 1,
      "gridPos": {
        "h": 9,
        "w": 14,
        "x": 10,
        "y": 0
      },
      "id": 2,
      "legend": {
        "alignAsTable": true,
        "avg": true,
        "current": false,
        "max": false,
        "min": false,
        "rightSide": true,
        "show": true,
        "total": true,
        "values": true
      },
      "lines": false,
      "linewidth": 1,
      "links": [],
      "nullPointMode": "null",
      "paceLength": 10,
      "percentage": false,
      "pointradius": 2,
      "points": false,
      "renderer": "flot",
      "seriesOverrides": [],
      "spaceLength": 10,
      "stack": false,
      "steppedLine": false,
      "targets": [
        {
          "format": "time_series",
          "group": [],
          "metricColumn": "none",
          "rawQuery": true,
          "rawSql": "SELECT\n  $__timeGroup(`date`, '24h', 0) AS \"time\",\n  COUNT(*) nombre\nFROM Tickets t\nWHERE\n  $__timeFilter(`date`)\nGROUP BY $__timeGroup(`date`, '24h', 0)\nORDER BY DATE(`date`)",
          "refId": "A",
          "select": [
            [
              {
                "params": [
                  "idImprimante"
                ],
                "type": "column"
              }
            ]
          ],
          "table": "Imprimante",
          "timeColumn": "dateVerif",
          "timeColumnType": "timestamp",
          "where": [
            {
              "name": "$__timeFilter",
              "params": [],
              "type": "macro"
            }
          ]
        }
      ],
      "thresholds": [],
      "timeFrom": null,
      "timeRegions": [],
      "timeShift": null,
      "title": "Nombre de tickets",
      "tooltip": {
        "shared": true,
        "sort": 0,
        "value_type": "individual"
      },
      "type": "graph",
      "xaxis": {
        "buckets": null,
        "mode": "time",
        "name": null,
        "show": true,
        "values": []
      },
      "yaxes": [
        {
          "decimals": 0,
          "format": "none",
          "label": null,
          "logBase": 1,
          "max": null,
          "min": null,
          "show": true
        },
        {
          "decimals": 0,
          "format": "none",
          "label": null,
          "logBase": 1,
          "max": null,
          "min": null,
          "show": true
        }
      ],
      "yaxis": {
        "align": false,
        "alignLevel": null
      }
    },
    {
      "aliasColors": {},
      "bars": true,
      "dashLength": 10,
      "dashes": false,
      "datasource": "DFA",
      "decimals": 0,
      "fill": 1,
      "gridPos": {
        "h": 9,
        "w": 14,
        "x": 10,
        "y": 9
      },
      "id": 4,
      "legend": {
        "alignAsTable": true,
        "avg": true,
        "current": false,
        "max": false,
        "min": false,
        "rightSide": true,
        "show": true,
        "total": true,
        "values": true
      },
      "lines": false,
      "linewidth": 1,
      "links": [],
      "nullPointMode": "null",
      "paceLength": 10,
      "percentage": false,
      "pointradius": 2,
      "points": false,
      "renderer": "flot",
      "seriesOverrides": [],
      "spaceLength": 10,
      "stack": true,
      "steppedLine": false,
      "targets": [
        {
          "format": "time_series",
          "group": [],
          "metricColumn": "none",
          "rawQuery": true,
          "rawSql": "SELECT\n  $__timeGroup(`date`, '24h', 0) AS \"time\",\n  COUNT(*) nombre,\n  (select f.libelle_FA from Libelle_FA f where f.idFile_attente = t.idFile_attente and f.idLangue = 1 LIMIT 1) file_attente\nFROM Tickets t\nWHERE\n  $__timeFilter(`date`)\nGROUP BY DATE(`date`), t.idFile_attente\nORDER BY DATE(`date`)",
          "refId": "A",
          "select": [
            [
              {
                "params": [
                  "idImprimante"
                ],
                "type": "column"
              }
            ]
          ],
          "table": "Imprimante",
          "timeColumn": "dateVerif",
          "timeColumnType": "timestamp",
          "where": [
            {
              "name": "$__timeFilter",
              "params": [],
              "type": "macro"
            }
          ]
        }
      ],
      "thresholds": [],
      "timeFrom": null,
      "timeRegions": [],
      "timeShift": null,
      "title": "Nombre de tickets par file d'attente",
      "tooltip": {
        "shared": true,
        "sort": 0,
        "value_type": "individual"
      },
      "type": "graph",
      "xaxis": {
        "buckets": null,
        "mode": "time",
        "name": null,
        "show": true,
        "values": []
      },
      "yaxes": [
        {
          "decimals": 0,
          "format": "none",
          "label": null,
          "logBase": 1,
          "max": null,
          "min": null,
          "show": true
        },
        {
          "decimals": 0,
          "format": "none",
          "label": null,
          "logBase": 1,
          "max": null,
          "min": null,
          "show": true
        }
      ],
      "yaxis": {
        "align": false,
        "alignLevel": null
      }
    },
    {
      "aliasColors": {},
      "bars": true,
      "dashLength": 10,
      "dashes": false,
      "datasource": "DFA",
      "decimals": 0,
      "fill": 1,
      "gridPos": {
        "h": 10,
        "w": 14,
        "x": 10,
        "y": 18
      },
      "id": 5,
      "legend": {
        "alignAsTable": true,
        "avg": true,
        "current": false,
        "max": false,
        "min": false,
        "rightSide": true,
        "show": true,
        "total": true,
        "values": true
      },
      "lines": false,
      "linewidth": 1,
      "links": [],
      "nullPointMode": "null",
      "paceLength": 10,
      "percentage": false,
      "pointradius": 2,
      "points": false,
      "renderer": "flot",
      "seriesOverrides": [],
      "spaceLength": 10,
      "stack": true,
      "steppedLine": false,
      "targets": [
        {
          "format": "time_series",
          "group": [],
          "metricColumn": "none",
          "rawQuery": true,
          "rawSql": "SELECT\n    $__timeGroup(`date`, '24h', 0) AS \"time\",\n    COUNT(*) nombre,\n    (select concat(u.Nom, ' ', u.Prenom) from Utilisateurs u where u.idUtilisateur = th.idUtilisateur LIMIT 1) secretaire\nFROM Tickets t\ninner join Ticket_historique th on (th.idTicket = t.idTickets and th.idStatut_ticket = 8)\nWHERE $__timeFilter(`date`)\nGROUP BY DATE(`date`), secretaire\nORDER BY DATE(`date`)\n",
          "refId": "A",
          "select": [
            [
              {
                "params": [
                  "idImprimante"
                ],
                "type": "column"
              }
            ]
          ],
          "table": "Imprimante",
          "timeColumn": "dateVerif",
          "timeColumnType": "timestamp",
          "where": [
            {
              "name": "$__timeFilter",
              "params": [],
              "type": "macro"
            }
          ]
        }
      ],
      "thresholds": [],
      "timeFrom": null,
      "timeRegions": [],
      "timeShift": null,
      "title": "Nombre de tickets acquittés par secrétaire",
      "tooltip": {
        "shared": true,
        "sort": 0,
        "value_type": "individual"
      },
      "type": "graph",
      "xaxis": {
        "buckets": null,
        "mode": "time",
        "name": null,
        "show": true,
        "values": []
      },
      "yaxes": [
        {
          "decimals": 0,
          "format": "none",
          "label": null,
          "logBase": 1,
          "max": null,
          "min": null,
          "show": true
        },
        {
          "decimals": 0,
          "format": "none",
          "label": null,
          "logBase": 1,
          "max": null,
          "min": null,
          "show": true
        }
      ],
      "yaxis": {
        "align": false,
        "alignLevel": null
      }
    }
  ],
  "refresh": false,
  "schemaVersion": 16,
  "style": "dark",
  "tags": [],
  "templating": {
    "list": []
  },
  "time": {
    "from": "now-90d",
    "to": "now"
  },
  "timepicker": {
    "refresh_intervals": [
      "5s",
      "10s",
      "30s",
      "1m",
      "5m",
      "15m",
      "30m",
      "1h",
      "2h",
      "1d"
    ],
    "time_options": [
      "5m",
      "15m",
      "1h",
      "6h",
      "12h",
      "24h",
      "2d",
      "7d",
      "30d"
    ]
  },
  "timezone": "",
  "title": "DFA - Tableau de bord",
  "uid": "OaUpzU9ik",
  "version": 12
}
